 Article Id , Snippet , Headline , Headline kicker , Section Name , Published Date , Major Keywords , Minor Keywords ,, Lead Paragraph , Abstract , Domain , Field , Product 
4fd1006b8eb7c8105d5bb10a,Designing and building things for the United States military is a notoriously slow-moving and costly endeavor. The time from idea to manufacturing for a new armored personnel carrier or a tank is typically 10 to 20 years.     The Defense Advanced...,Seeking Ideas For U.S. Defense,BITS,Technology; Business,2012-04-09T00:00:00Z,"DEFENSE ADVANCED RESEARCH PROJECTS AGENCY,DEFENSE CONTRACTS,CONTESTS AND PRIZES,CROWDSOURCING (INTERNET),RESEARCH,COMPUTERS AND THE INTERNET,",,,Swaths of public land in the California desert will be opened to solar and wind farms under a federal plan released Wednesday that preserves much of the landscape for conservation and recreation.,,Agriculture,Farm Management Software,Trimble Ag Solutions
4fd299828eb7c8105d877559,"The construction of a Long Island Rail Road hub at Grand Central Terminal will cost $2 billion more than estimated and will not be completed until 2019, the Metropolitan Transportation Authority said.",L.I.R.R. Plan For East Side Over on Cost And Schedule,,,2012-05-21T00:00:00Z,"NEW YORK CITY,METROPOLITAN TRANSPORTATION AUTHORITY,LONG ISLAND RAIL ROAD CO,GRAND CENTRAL TERMINAL (NYC),TRANSIT SYSTEMS,",,,"Creating a Long Island Rail Road link to the East Side of Manhattan will take six years longer to accomplish than originally expected and will cost nearly $2 billion more than the initial estimate, Metropolitan Transportation Authority officials said Monday. The new completion date for the project is August 2019, and officials put the cost at $8.24 billion, up from an estimate of $6.3 billion in 2006. The 2006 estimate came after $2.6 billion in federal financing for the ambitious project was announced, and transportation officials said then that they thought the project would be finished by the end of 2013. It has been delayed a number of times.","Metropolitan Transportation Authority says construction of Long Island Rail Road hub at Grand Central Terminal will cost $8.24 billion, $2 billion more than estimated, and will not be completed until 2019, six years later than originally expected; cites construction difficulties and complications caused by unrelated projects. (M)",Construction,Rail Construction,Quantum Enterprise Solution
4fd29ea58eb7c8105d881556,"Eurostar, the high-speed rail service that connects London with the rest of Europe through the English Channel Tunnel, has started a new Web site touting its leisure-focused service. The site, called Europe by Eurostar, offers the usual timetable and...",Art Listings Light Up Eurostar's New Web Site,IN TRANSIT,Technology; Travel,2010-08-01T00:00:00Z,"EUROPE,LONDON (ENG),ENGLISH CHANNEL,EUROSTAR,HIGH-SPEED RAIL PROJECTS,RAILROADS,COMPUTERS AND THE INTERNET,",,,The Pentagon is developing plans to use social networking sites like Facebook and Twitter as both a resource and a weapon in future conflicts. Its research and development agency is offering $42 million in funding to anyone who can help.,The Pentagon is looking for social networking experts to help it identify and fight future conflicts.,Construction,"Building Design, Construction & Operation",Tekla Structures (Tekla BIMSight)
4fd2b9f28eb7c8105d8afe69,"Updated, 4:58 p.m. | Five construction workers were rescued from a five-story apartment building under construction in Brighton Beach, Brooklyn, that collapsed on Tuesday afternoon.     One worker was in critical condition, the Fire Department said....",Worker Dies After Being Rescued From Building Collapse in Brooklyn,CITY ROOM,New York and Region,2011-11-09T00:00:00Z,,,,,The Day: Construction delays and swollen costs are practically hard-wired into our municipal and regional DNA.,Construction,"Building Design, Construction & Operation",Gehry Technologies
4fd39b1d8eb7c8105d8d9450,The behavior of 'brood parasites' like the cuckoo show us how organisms' sensory systems interact with the world.,Cuckoo!  Cuckoo!,Opinionator,Opinion,2010-06-01T21:00:12Z,"News,",,,"Construction will begin next year on a series of tightly coordinated engineering works, including a traffic tunnel and an earthquake-conscious sea wall.","Seattle is set to undertake $4.5 billion series of tightly coordinated engineering works, including a traffic tunnel and an earthquake-conscious sea wall, that will transform the city's waterfront.",Construction,"Building Design, Construction & Operation",Gehry Technologies
4fd39bb28eb7c8105d8da916,"Yeast, with but a single cell, is nevertheless a star of the laboratory, and not just because it's essential to making bread and beer.","Bubbles, Bread and Beer",Opinionator,Opinion,2010-06-22T21:00:20Z,"News,",,,The New York Public Library will have to work structural magic to build Norman Foster’s branch library beneath the reading room on 42nd Street.,Michael Kimmelman Critic's Notebook expresses dismay with architect Norman Foster's plans to revamp and modernize New York Public Library's main 42nd Street building; notes new circulating library would be installed under reading room; contends his designs are not worthy of him and have all elegance and distinction of suburban mall.,Construction,"Building Design, Construction & Operation",Tekla Structures (Tekla BIMSight)
4fd39c198eb7c8105d8db736,"Why the New Zealand earthquake, a tad stronger than the Haitian disaster, had a relatively minor impact.","In Earthquakes, Poverty, Population and Motion Matter",Dot Earth,,2010-09-07T11:05:43Z,"News,",,,The New York Public Library will have to work structural magic to build Norman Foster’s branch library beneath the reading room on 42nd Street.,Michael Kimmelman Critic's Notebook expresses dismay with architect Norman Foster's plans to revamp and modernize New York Public Library's main 42nd Street building; notes new circulating library would be installed under reading room; contends his designs are not worthy of him and have all elegance and distinction of suburban mall.,Construction,"Building Design, Construction & Operation",Tekla Structures (Tekla BIMSight)
4fd39cd78eb7c8105d8dd4e7,An abrupt Atlantic cool spell 40 years ago adds a wrinkle to the picture of 20th century climate shifts.,A Sharp Ocean Chill and 20th Century Climate,Dot Earth,Opinion,2010-09-22T13:03:52Z,"News,",,,A new alliance wants zoning rules eased more than the city administration has proposed to encourage construction of towers around Grand Central Terminal.,"Prominent developers forge an unusual alliance with labor and the construction industry to lobby for rules to allow a new crop of New York City skyscrapers around Grand Central Terminal in Midtown; alliance is pressing the Bloomberg administration to loosen proposed zoning changes so that more skyscrapers can be built on more sites, at quicker pace and lower cost.",Construction,"Building Design, Construction & Operation",Tekla Structures (Tekla BIMSight)
4fd39d508eb7c8105d8de70c,"Adding and widening roads to ease traffic congestion can end up exacerbating the problem, not to mention generating heat-trapping smog.",New Roads = Traffic = Emissions?,Green,Science,2010-11-19T10:48:15Z,"High-Speed Rail Projects,Nairobi (Kenya),Greenhouse Gas Emissions,American Recovery and Reinvestment Act (2009),Roads and Traffic,News,Transit Systems,Beijing (China),Guangzhou (China),Kenya,",,,"The construction of a Long Island Rail Road hub at Grand Central Terminal will cost $2 billion more than estimated and will not be completed until 2019, the Metropolitan Transportation Authority said.","Metropolitan Transportation Authority says construction of Long Island Rail Road hub at Grand Central Terminal will cost $8.24 billion, $2 billion more than estimated, and will not be completed until 2019, six years later than originally expected; cites construction difficulties and complications caused by unrelated projects.",Construction,Rail Construction,Quantum Enterprise Solution
4fd39d688eb7c8105d8debd0,Republican governors-elect in several states plan to kill proposed high-speed rail projects that received federal stimulus funds.,A High-Speed Derailment,Green,Science,2010-11-04T12:37:20Z,"Walker, Scott,Wisconsin,Mica, John,Kasich, John R,American Recovery and Reinvestment Act (2009),News,High-Speed Rail Projects,Transportation Department (US),Milwaukee (Wis),Ohio,",,,Common-sense principles embedded in the design of Hunters Point South Waterfront Park ensured that Hurricane Sandy left little damage on the project.,David W Dunlap Building Blocks column on Hunters Point South Waterfront Park in Queens; park sustained minimal damage during Hurricane Sandy thanks to common-sense principles for flood protection embedded in its design and construction.,Construction,"Building Design, Construction & Operation",Tekla Structures (Tekla BIMSight)
4fd39dc08eb7c8105d8df8b8,He also calls on the New Jersey governor to reconsider his decision to scrap the Trans-Hudson project.,Schumer Criticizes Christie's Plan to Divert Tunnel Funds,City Room,N.Y. / Region,2011-01-18T10:53:02Z,"Trans-Hudson Passenger Rail Tunnel (ARC Tunnel),Schumer, Charles E,Christie, Christopher J,Port Authority of New York and New Jersey,News,New Jersey,New York State,",,,"The museum, formerly called the Queens Museum of Art, was a forbidding bookend to Flushing Meadows-Corona Park. Now it fits its environment.",David W Dunlap Building Blocks column; $69 million plan to reconstruct and expand Queens Museum of Art has transformed museum from a forbidding bookend to Flushing Meadows-Corona Park into a brighter and more open space that feels like an extension of the park itself.,Construction,"Building Design, Construction & Operation",Trimble ProjectSight
4fd39e0a8eb7c8105d8e01b8,Fashion and film collide in the designer Mandy Coon's latest project.,Asked & Answered | Mandy Coon,T Magazine,T:Style,2011-01-13T16:46:03Z,"News,",,,"A half-century ago, Robert Moses turned over planning and development of the 1964 event’s entire 80-acre transportation area to the bistate agency.",David W Dunlap Building Blocks column; Robert Moses turned over planning and development of 1964 World's Fair's entire 80-acre transportation area to bistate agency that would later become Port Authority of New York and New Jersey; legacy of odd assignment is set of curious architectural drawings that reveal how Port Authority once had whimsical streak.,Construction,"Building Design, Construction & Operation",Sketchup
4fd39e0a8eb7c8105d8e024b,"A three-year restoration of the Suleymaniye Mosque in Istanbul is complete, and it reveals some original details.",Istanbul Mosque Gets 'Majestic' Makeover,In Transit,Travel,2010-12-19T06:00:14Z,"Istanbul (Turkey),Mosques,Architecture,News,",,,"After an $18.5 million renovation deemed extravagant by some, the 102-year-old Church of St. Joseph in Prospect Heights has been rededicated, supplementing a smaller cathedral downtown.","David W Dunlap Building Blocks column; enormous, 102-year-old Church of St Joseph in Brooklyn's Prospect Heights is rededicated, supplementing a smaller cathedral downtown; its $18.5 million renovation and redecoration is deemed extravagant by some.",Construction,"Building Design, Construction & Operation",Trimble ProjectSight
4fd39e188eb7c8105d8e02e1,Gov. Ted Strickland warns his successor that canceling construction of a high-speed passenger rail network could jeopardize jobs and cause Ohio to forfeit stimulus funds.,"Save High-Speed Rail, Departing Ohio Governor Urges",Green,Science,2010-12-09T10:23:24Z,"American Recovery and Reinvestment Act (2009),Ohio,Strickland, Ted,Kasich, John R,Governors (US),News,High-Speed Rail Projects,Labor and Jobs,Railroads,Transportation Department (US),",,,"Some see a $5.5 billion rail project as a threat to farms and small-town life, despite the bounty of jobs it promises.",,Construction,Rail Construction,Quantum Enterprise Solution
4fd39e8e8eb7c8105d8e16f8,"The Aram Gallery in Covent Garden is a no-fuss, top-floor retreat that celebrates the work of design graduates from around Britain.",London Underground | Now Viewing,T Magazine,T:Style,2011-03-30T18:00:36Z,"News,",,,"A proposed rail link between Tampa and Orlando, Fla., exposes the weaknesses in the two cities’ transit systems.",,Construction,Rail Construction,Quantum Enterprise Solution
4fd39e8e8eb7c8105d8e16f8,"The Aram Gallery in Covent Garden is a no-fuss, top-floor retreat that celebrates the work of design graduates from around Britain.",London Underground | Now Viewing,T Magazine,T:Style,2011-03-30T18:00:36Z,"News,",,,High-speed rail subsidies could repeat a 19th-century folly.,,Construction,Rail Construction,Quantum Enterprise Solution
4fd39f2f8eb7c8105d8e2d73,The fashion critics weigh in on the Mugler fall 2011 collection at Paris Fashion Week.,Scorecard Update | Mugler,T Magazine,T:Style,2011-03-03T11:36:09Z,"News,",,,Engineers are looking into building electric vehicles with carbon composites that can also serve as batteries. The materials could make the vehicles lighter as they also provide extra electricity.,,Construction,"Building Design, Construction & Operation",Gehry Technologies
4fd39f408eb7c8105d8e3020,"Another day of runway looks, another Scorecard at your service.",Scorecard | Mugler Wins!,T Magazine,T:Style,2011-03-03T19:15:23Z,"News,",,,Plans are being made to redevelop an unlovely area near the Ronkonkoma train station and turn it into a cool destination.,,Construction,"Building Design, Construction & Operation",Sketchup
4fd39f4c8eb7c8105d8e32fb,"An exclusive edit of Nicola Formichetti's debut women's-wear collection for Thierry Mugler at Paris Fashion Week, set to music by Lady Gaga.",T Exclusive Video | Mugler at Paris Fashion Week,T Magazine,T:Style,2011-03-07T08:55:47Z,"Fashion and Apparel,Mugler, Thierry,Lady Gaga,Paris Fashion Week,News,Trade Shows and Fairs,Paris (France),",,,"A day after ordering an end to construction, the New Jersey governor said he would study proposals put forth by the nation’s transportation secretary, Ray LaHood.",,Construction,"Building Design, Construction & Operation",Gehry Technologies
4fd3a09a8eb7c8105d8e61e4,The Pentagon is looking for social networking experts to help it identify and fight future conflicts.,Pentagon Seeks a Few Good Social Networkers,Bits,Technology,2011-08-02T09:05:52Z,"News,Cyberattacks and Cyberwarfare,Social Networking (Internet),Defense Advanced Research Projects Agency,",,,"After decades of decay, a new Corn Exchange is rising on Park Avenue and 125th Street at a cost of $14 million.","Building Blocks column; Artimus Construction will undertake $14 million renovation of decrepit Corn Exchange Bank at 81 East 125th Street, once one of Harlem's most impressive buildings; former bank will open for retail and office tenants in 2015.",Construction,"Building Design, Construction & Operation",Trimble ProjectSight
4fd3a0cc8eb7c8105d8e6782,"The governing body of the race series recently tested the impact absorption of the canopies, which may find their way onto Formula One cars in coming years.",Fighter-Jet Cockpit Canopies Tested for Formula One Racecars,Wheels,Autos,2011-08-02T06:00:45Z,"News,",,,Restoring three pieces from the federal Work Projects Administration at a hospital on Roosevelt Island presented many challenges.,"David W Dunlap Building Blocks column examines effort by conservators at Cornell University to restore three rare 7-by-50-foot murals from Goldwater Memorial Hospital on Roosevelt Island; observes that initial challenge was to locate two of the murals, which had been painted over long ago; hospital is being torn down to make way for Cornell Tech campus.",Construction,"Building Design, Construction & Operation",Tekla Structures (Tekla BIMSight)
4fd3a12d8eb7c8105d8e7775,Ikebana baskets. Japanese ceramics. Traditional textiles and custom wood furniture. Just some of the items sold at a charming concept shop in Hollywood.,Seeing Things | Iko Iko Goes West,T Magazine,T:Style,2011-08-18T12:03:39Z,"News,",,,"A 350-foot-deep shaft in Orange County will connect to a tunnel and eventually bypass a leaky section of the Delaware Aqueduct, which provides about half of the city&#8217;s daily water supply.","David W Dunlap Building Blocks column examines effort in Orange County, NY, to drill two massive holes and 2.5 mile connecting tunnel beneath Hudson River; notes that new pipeline will bypass leaky section of the Delaware Aqueduct, which provides roughly half of New York City's daily water supply; describes visit to project site in Newburgh, NY, where workers have reached depth of 350 feet so far.",Construction,Underground Construction,Spectra Precision
4fd3a1338eb7c8105d8e787b,A closer look at Australia's move to put a price on CO2.,Australians Assess Their Greenhouse Plan,Dot Earth,Opinion,2011-10-17T17:09:00Z,"Global Warming,Coal,Carbon Dioxide,Greenhouse Gas Emissions,News,Australia,",,,"A three-day conference in St. Louis is expected to draw 1,200 innovators to collaborate across diverse science and technology fields.","Pentagon will host three-day conference in St Louis in order to strengthen ties with American scientists and engineers; conference is brainchild of Arati Prabhakar, Defense Advanced Research Projects Agency head, and is part of Pentagon's effort to tap into Silicon Valley talent pool.",Construction,"Building Design, Construction & Operation",Sketchup
4fd3a1458eb7c8105d8e7c3d,"Rapid Results, a strategy designed for corporations, is helping communities in Africa set goals and solve problems in 100 days or less.","Making Change Happen, on a Deadline",Opinionator,Opinion,2011-09-29T19:55:09Z,"Acquired Immune Deficiency Syndrome,Africa,Schaffer, Robert H,Matta, Nadim F,Tests (Medical),News,Third World and Developing Countries,African Capacity Building Foundation,PreFabricated Building Parts Production Enterprise,Rapid Results Institute,",,,"Construction has begun in Lower Manhattan on the St. Nicholas National Shrine, a Greek Orthodox church and nondenominational bereavement center whose dome will be illuminated at night.",Building Blocks column; work has begun on St Nicholas National Shrine near National September 11 Memorial on World Trade Center site after years of controversy; Greek Orthodox church and nondenominational bereavement center will be domed structure with white marble veneer that will glow at night.,Construction,"Building Design, Construction & Operation",Vico Office
4fd3a1718eb7c8105d8e8219,Are debates over the meaning of e-mail discussions of climate science missing the big picture?,You're Driving a Bus Full of Kids With a Curve Ahead,Dot Earth,Opinion,2011-11-23T12:50:41Z,"Science and Technology,Global Warming,Environment,News,",,,"Armed with a pen and a spiral notebook, Philip Ashforth Coppola began to chronicle the artistic décor of each city station in 1978. He expects to be done by 2030.","David W Dunlap Building Blocks column profiles New Jersey artist Philip Ashforth Coppola, who began enormous project of documenting artistic decor to be found at all 469 stations in New York City subway system in 1978; Arkin has so far self-published six volumes titled Silver Connections, which feature his meticulous drawings and historical narrative; expects to complete project in 2030.",Construction,"Building Design, Construction & Operation",Sketchup
4fd3a1ae8eb7c8105d8e8952,"One worker was critically injured, but no one was unaccounted for after a five-story apartment building under construction collapsed.",Five Workers Injured in Brighton Beach Building Collapse,City Room,N.Y. / Region,2011-11-08T14:55:15Z,"Brighton Beach (NYC),Building (Construction),Accidents and Safety,News,",,,"There has been lots of talk lately about the Gateway project, which would double the rail capacity into and out of Penn Station. A visit to Manhattan’s Far West Side shows Gateway is more than talk.","David W Dunlap Building Blocks column; concrete casings surround two 850-foot-long tunnels below Hudson Yards development, preserving Amtrak's right of way through construction site; currently unused tunnels will eventually be part of Hudson River Tunnels project, also known as Gateway, which will double rail capacity between New Jersey and Manhattan.",Construction,Civil and Site Construction and Engineering,Machine Control
4fd3a23a8eb7c8105d8e9eb6,More work reinforces the idea that the human climate impact is staving off the next ice age.,The Next Ice Age and the Anthropocene,Dot Earth,Opinion,2012-01-08T13:09:23Z,"Next Ice Age,Geology,Science and Technology,Earth,Revkin, Andrew C,Global Warming,News,Greenhouse Gas Emissions,History (Academic Subject),Ice,Ice Age,Greenland,",,,"A significant revision has occurred in the design of the long-planned extension, but saying something is better is not the same as saying it is the best.","David W Dunlap Building Blocks column notes design for long-planned extension of Pennsylvania Station, to be known as Moynihan Station has undergone significant revision, its fifth since it was originally proposed in 1992, and that new design has failed to impress many critics.",Construction,"Building Design, Construction & Operation",Sketchup
4fd3a2e98eb7c8105d8eb877,"Tax credits from New York City are the final piece of financing needed for the construction of El Barrio's Artspace (PS109), a development of housing and work spaces for artists planned for East Harlem.",Artists' Development in Harlem Gets Final Financing,ArtsBeat,Arts,2012-01-30T12:29:35Z,"Tax Credits, Deductions and Exemptions,Art,Affordable Housing,Artspace Projects Inc,News,Department of Housing Preservation and Development (NYC),East Harlem (NYC),New York City,",,,"Critics of Honolulu’s elevated rail system, which is two years behind schedule, say too much effort and taxpayer money have been spent to give up on the plan now.","Planned elevated railway project on Oahu island in Hawaii is over budget and behind schedule, and has disrupted traffic and neighborhoods, validating concerns of project's original critics; most residents, even its opponents, are resigned to finishing construction as best option.",Construction,Rail Construction,Quantum Enterprise Solution
4fd3a46b8eb7c8105d8eeede,The Day: Construction delays and swollen costs are practically hard-wired into our municipal and regional DNA.,"When a New Transit Project Is Announced, Expect Delays",cityroom,N.Y. / Region,2012-05-24T09:20:39Z,"New York City,Metropolitan Transportation Authority,Port Authority of New York and New Jersey,Bridges and Tunnels,Transit Systems,",,,"Irritation with the faltering project, unfinished after seven years, has turned into a sort of focused hatred for the people who live beneath it.","Residents of Kolkata, India, living near unfinished highway overpass project are incensed by collapse of 330-foot slab of steel and concrete, which killed at least 26 people in traffic beneath; many locals, who had been irritated for years over dysfunctional building project run by Infrastructures & Projects Ltd, are demanding structure be dismantled.",Construction,"Building Design, Construction & Operation",Tekla Structures (Tekla BIMSight)
4fd3a4818eb7c8105d8ef251,Polls show that North Carolina voters are likely to pass an amendment to the state's constitution banning same-sex marriage and all domestic partnerships - but also that there is some confusion about what the amendment says.,North Carolina's Ban on Gay Marriage Appears Likely to Pass,fivethirtyeight,U.S.,2012-05-04T13:51:27Z,,,,"Israel and Turkey will consider building a pipeline that would carry Israeli natural gas to Turkey and onward to European markets, Israel's energy minister said Thursday, during a first visit by an Israeli minister since the countries ended a six-year rift this summer.",,Construction,Civil and Site Construction and Engineering,Paving Control
50008fa91c22dfde670af744,"Talk of an economic slowdown in China has become so loud and persistent that it now has its own slang: ghost cities, ghost fleets, rocket eggs, naked officials. The downturn has even led to the invention of a new financial algorithm, something called...",China's Economy: Apocalypse Soon?,IHT Rendezvous,World,2012-07-09T00:26:49Z,"Chancellor, Edward,Wen Jiabao,China,Hong Kong,Business Insider Inc,Foreign Policy (Magazine),New Yorker,Banking and Financial Institutions,Steel and Iron,United States International Relations,Coal,Economic Conditions and Trends,Factories and Manufacturing,Gross Domestic Product,High-Speed Rail Projects,Luxury Goods,Metals and Minerals,Real Estate and Housing (Residential),Roads and Traffic,",,,Several large residential projects along West Street are underway.,,Construction,"Building Design, Construction & Operation",Sketchup
5008efe31c22dfde670b150e,The real trouble with macroeconomists.,Making Ourselves Useless,Paul Krugman,Opinion,2012-07-19T17:16:20Z,,,,"With land scarce and costly, developers are turning to multiuse projects, as the Durst Organization is with its building on the Avenue of the Americas.","More developers are combining residential and commercial space, as property becomes scarcer and more costly; one example of trend is Durst Corporation's Eos building, 47-story mixed-use tower in Manhattan.",Construction,"Building Design, Construction & Operation",Proliance
5050ce2b1c22dfde670c696d,"Investment in new buildings and other fixed assets, once a mainstay of the nation’s economy, grew at the second-lowest pace since 2002.",Construction and Real Estate Hinder China’s Growth,,Business Day,2012-09-10T14:20:00Z,"China,","Chengdu (China),Inflation (Economics),Building (Construction),",,"Designing and building things for the United States military is a notoriously slow-moving and costly endeavor. The time from idea to manufacturing for a new armored personnel carrier or a tank is typically 10 to 20 years. The Defense Advanced Research Projects Agency wants to change that, and drastically so. It seeks to cut the design-to-production cycle to two to four years.","Bits blog; Defense Advanced Research Projects Agency, or Darpa, is looking to use crowdsourcing and contests to speed up the design and building process for United States military projects, hoping to cut the cycle from 10 to 20 years down to two to four. Photo (M)l",General,General,General
505794411c22dfde670c9281,"Even as travel is becoming more of a hassle, a book about crimes on Interstate highways might make you think twice about driving.",Drive or Fly? Depends on Your Tolerance for Risk,On the Road,Business Day,2012-09-18T00:00:00Z,"Roads and Traffic,Business Travel,Airlines and Airplanes,Books and Literature,","Strand, Ginger,",,"Eurostar, the high-speed rail service that connects London with the rest of Europe through the English Channel Tunnel, has started a new Web site touting its leisure-focused service. The site, called Europe by Eurostar, offers the usual timetable and ticket booking options, but adds a layer of art, food, fashion and music listings available via the rail service, mostly focusing on hidden gems instead of the usual tourist spots. In addition, a nifty interactive map integrates several countries' national rail services with Eurostar lines, allowing travelers to book multi-destination journeys without having to brave an array of foreign-language Web sites. A warning: ticket prices displayed on the itinerary map are at the cheapest possible rate and can become unavailable very quickly. The actual price, found further along the booking process, can be significantly more expensive than the one initially displayed. Also, as the Web site is still under construction, some content is out of date and some destinations do not have content yet.","High-speed rail service Eurostar, which connects London with rest of Europe through English Channel Tunnel, starts Web site promoting its leisure-focused service; photo (M)",General,General,General
506f1b7adb1c5a2ac53b8172,"A Utah building inspector embraces alternative construction methods, as long the the research data is there to support new ways of doing things.",A Building Code With Room for Innovation,Green,Science,2012-10-05T10:19:26Z,"Grand County (Utah),Moab (Utah),Utah,Affordable Housing,Building (Construction),Straw,",,,"Updated, 4:58 p.m. | Five construction workers were rescued from a five-story apartment building under construction in Brighton Beach, Brooklyn, that collapsed on Tuesday afternoon. One worker was in critical condition, the Fire Department said. There were no workers missing.",,General,General,General
507c4e7e95e998af7118616f,"Public speaking, a requirement in many jobs, also provides employment or extra income to thousands of people who travel for speaking engagements that can pay from $1,500 to more than $200,000.",A Few Well-Chosen Words Pay the Fare for Some,On the Road,Business Day,2012-10-09T00:00:00Z,"Business Travel,","Public Speaking,Conventions, Fairs and Trade Shows,",,"A few weeks ago, I was walking through a wood in the English countryside when I heard the unmistakable call of the cuckoo. For some reason, it caused me to fall into a reverie, and as I walked, I began to meditate on that iconic bird and what it represents.",The behavior of 'brood parasites' like the cuckoo show us how organisms' sensory systems interact with the world.,General,General,General
5087265195e998af71187b39,An exhibition celebrates 100 years of the iconic glass dome at Galeries Lafayette's flagship store in Paris.,Shopping Under the Stars,,Fashion & Style,2012-10-23T14:20:00Z,,"Paris (France),Koolhaas, Rem,Fashion and Apparel,Shopping and Retail,",,"A couple of teaspoons of dried yeast. A pinch of sugar. A cup of warm water. And a few minutes later, you'll have a foamy, bubbly brew of lively yeast cells, ready to be added to a bowl of flour and turned into bread.","Yeast, with but a single cell, is nevertheless a star of the laboratory, and not just because it's essential to making bread and beer.",General,General,General
5087281195e998af71188d6e,"With chances slim for new national policy and more government assistance, where will the impetus — and money — for energy innovation come from?","After Federal Jolt, Clean Energy Seeks New Spark",,Business Day,2012-10-24T00:00:00Z,"Alternative and Renewable Energy,Federal Budget (US),Wind Power,Solar Energy,","Energy Department,Economic Stimulus Act (2008),High-Speed Rail Projects,Advanced Research Projects Agency-Energy,",,"There are plenty of reasons damage and deaths from the 7.1-magnitude earthquake that struck near Christchurch, New Zealand, on Saturday utterly paled compared to the absolute devastation wrought by the 7.0-magnitude quake near Port-au-Prince, Haiti. I sent a query about the different outcomes in Christchuch, Haiti (and Chile) to a half dozen engineers and geologists working on earthquake preparedness and design and you can read some of their observations below.","Why the New Zealand earthquake, a tad stronger than the Haitian disaster, had a relatively minor impact.",General,General,General
50a7ec4c00315214fbb7b02e,A court denied a request to halt work on the project from farmers in the Central Valley.,Judge Denies Injunction for California Rail Project,,U.S.,2012-11-18T00:00:00Z,,"California,Decisions and Verdicts,Railroads,High-Speed Rail Projects,",,"A new paper closely examining ocean temperatures throws a twist into understanding of the pattern of global warming seen in the 20th century, but does it throw established concepts and climate models into question?",An abrupt Atlantic cool spell 40 years ago adds a wrinkle to the picture of 20th century climate shifts.,General,General,General
50b5082100315214fbb7c84a,"No matter where travelers exchanged currency, they should inspect the money so they don’t unwittingly use it.",Keeping an Eye Out for Counterfeit Money,On the Road,Business Day,2012-11-27T00:00:00Z,"Counterfeit Money and Financial Instruments,Business Travel,","Currency,Travel and Vacations,",,"This week I was in Kenya and ended up spending a lot of time sitting in traffic. Even at night, a trip to the Nairobi airport that should have taken 30 minutes took three times that. In reporting trips to large cities of the developing world, I have noticed that one feature most now have in common is this jarring traffic and attendant smog, from Nairobi to New Delhi to Beijing.","Adding and widening roads to ease traffic congestion can end up exacerbating the problem, not to mention generating heat-trapping smog.",General,General,General
50b5084300315214fbb7ca24,"Trade between the sometimes hostile neighbors has skyrocketed, and $5.2 billion in new deals announced on Monday.",India and China Deepen Economic Ties ,India Ink,World,2012-11-27T03:12:15Z,"China,India,New Delhi (India),Computers and the Internet,Economic Conditions and Trends,High-Speed Rail Projects,",,,"Representative John Mica of Florida, the senior Republican in line to take the reins of the House Transportation Committee in January, is unhappy with the way the Obama administration awarded $10 billion in federal stimulus funds for high-speed rail projects.",Republican governors-elect in several states plan to kill proposed high-speed rail projects that received federal stimulus funds.,General,General,General
50b6935600315214fbb7cf51,"The work of the artist Agnes Denes, in all its variety, is being introduced to new audiences in shows on both coasts.",Stretching Her Creativity as Far as Possible,,Arts,2012-12-02T00:00:00Z,"Art,Denes, Agnes,","Santa Monica Museum of Art,Leslie Tokonow Artworks + Projects,",,"Updated, 12:44 p.m. | New York's senior senator, Charles E. Schumer, sharply criticized New Jersey's governor, Chris Christie, for his decision to halt the construction of a commuter rail tunnel under the Hudson River and to try to divert some of the money for that project to fix roads and bridges in New Jersey.",He also calls on the New Jersey governor to reconsider his decision to scrap the Trans-Hudson project.,General,General,General
50be96bf00315214fbb7d85f,"Construction will begin next year on a series of tightly coordinated engineering works, including a traffic tunnel and an earthquake-conscious sea wall.","Engineering Projects Will Transform Seattle, All Along the Waterfront",,U.S.,2012-12-05T00:00:00Z,"Seattle (Wash),Infrastructure (Public Works),","Bridges and Tunnels,Transit Systems,Buildings (Structures),Engineering and Engineers,",,"Mandy Coon nabbed one of this year's Ecco Domani fashion awards for her structural, dark, moody and much buzzed-about designs, but her talents don't stop there. She occasionally moonlights as a D.J. and a model, and it turns out she is also something of a film buff. Her newest side project is called the Fashion in Film-Designer Inspiration movie night. First up for the private event is Ingmar Bergman's beautifully confusing psychological thriller ""Persona."" The film stars Liv Ullmann as Elisabeth, a successful actress who becomes suddenly mute, and Bibi Andersson as Alma, a young nurse who is supposed to care for Elisabeth but falls into an even more twisted and fragile mental state than her patient. The film's costumes are more straightforward than the plot - black turtlenecks, a great pleather trench, a monochromatic suit. It's not hard to see why Coon would be drawn to it.",Fashion and film collide in the designer Mandy Coon's latest project.,General,General,General
50c676ab00315214fbb7eba4,The cuts in domestic air service and other problems of air travel have made the rail option viable.,Trains Fill the Gaps in Airline Schedules,On the Road,Business Day,2012-12-11T00:00:00Z,"Business Travel,Airlines and Airplanes,Railroads,","Transit Systems,Amtrak,",,"Standing in the main sanctuary of Suleymaniye Mosque, Amin, a cleaner of the mosque's carpets, raised his hands in joy. ""It's Suleymaniye, it's muhtesem,"" he said, using a Persian word meaning ""majestic."" The reason for celebration: the completion of a three-year restoration of the 453-year-old imperial mosque.","A three-year restoration of the Suleymaniye Mosque in Istanbul is complete, and it reveals some original details.",General,General,General
50dac88800315214fbb812ee,"Bullet trains traveling 186 miles an hour have begun regular service between Beijing and Guangzhou, shortening the 1,200-mile trip from 21 hours to eight.",China Opens Longest High-Speed Rail Line,,Business Day,2012-12-27T00:00:00Z,"China,High-Speed Rail Projects,","Infrastructure (Public Works),",,3:40 p.m. | Updated The federal Department of Transportation announced on Thursday that it was taking back the $810 million awarded to Ohio and Wisconsin for rail projects and redistributing it to 12 other states. Our original post follows:,Gov. Ted Strickland warns his successor that canceling construction of a high-speed passenger rail network could jeopardize jobs and cause Ohio to forfeit stimulus funds.,General,General,General
50eb700600315214fbb82e81,"Behavior detection officers observe and talk to passengers for signs of trouble. Such officers, some with explosive-sniffing dogs, already routinely survey checkpoint lines.",T.S.A. Experiments With Behavior Screening,On the Road,Business Day,2013-01-08T00:00:00Z,"Airport Security,Transportation Security Administration,","Airlines and Airplanes,Business Travel,Travel and Vacations,",,"I have always had a soft spot for the Aram Gallery. While the Aram shop in Covent Garden is an established retail destination for anyone interested in modern and contemporary design, its no-fuss, top-floor design gallery has always felt like a secret. From 2002 to 2010, the gallery was curated by Daniel Charny and is currently under the guidance of Ellie Parke.","The Aram Gallery in Covent Garden is a no-fuss, top-floor retreat that celebrates the work of design graduates from around Britain.",General,General,General
50fe482800315214fbb864d4,"The T.S.A. is taking some scanners out of service but, having spent $45 million on them, it has been vague on where they might be redeployed.",A Farewell to ‘Nudity’ at Airport Checkpoints,On the Road,Business Day,2013-01-22T00:00:00Z,"Airport Security,Transportation Security Administration,","Airports,Privacy,X-Rays,Rapiscan Systems,",,"I have always had a soft spot for the Aram Gallery. While the Aram shop in Covent Garden is an established retail destination for anyone interested in modern and contemporary design, its no-fuss, top-floor design gallery has always felt like a secret. From 2002 to 2010, the gallery was curated by Daniel Charny and is currently under the guidance of Ellie Parke.","The Aram Gallery in Covent Garden is a no-fuss, top-floor retreat that celebrates the work of design graduates from around Britain.",General,General,General
5107842f00315214fbb879db,"If you waited until this week to plan your trip to the N.F.L. championship game in New Orleans, you will have a difficult time finding affordable airfare and hotels.",Costly Last-Minute Deals for the Super Bowl Crowd,On the Road,Business Day,2013-01-29T00:00:00Z,"Super Bowl,Airlines and Airplanes,Hotels and Travel Lodgings,Football,","Business Travel,",,The fashion critics weigh in on the Mugler fall 2011 collection at Paris Fashion Week.,The fashion critics weigh in on the Mugler fall 2011 collection at Paris Fashion Week.,General,General,General
51085fe700315214fbb87e8d,The New York Public Library will have to work structural magic to build Norman Foster’s branch library beneath the reading room on 42nd Street.,"In Renderings for a Library Landmark, Stacks of Questions",Critic’s Notebook,Arts,2013-01-30T00:00:00Z,"New York Public Library,Architecture,Foster, Norman,","Libraries and Librarians,Manhattan (NYC),",,"Paris fashion week started on quite a somber note, but Scorecard knows critics were cognizant of the old saying about show business - and ready for a little performative distraction. In the final time slot Wednesday, uberstylist Nicola Formichetti showed his first womenswear collection  for the former Haus of Thierry Mugler and - with a little help from his star client - had them putting their paws up in the air.","Another day of runway looks, another Scorecard at your service.",General,General,General
51085fe700315214fbb87e8d,The New York Public Library will have to work structural magic to build Norman Foster’s branch library beneath the reading room on 42nd Street.,"In Renderings for a Library Landmark, Stacks of Questions",Critic’s Notebook,Arts,2013-01-30T00:00:00Z,"New York Public Library,Architecture,Foster, Norman,","Libraries and Librarians,Manhattan (NYC),",,"It was a show of firsts. Nicola Formichetti presented his debut women's-wear collection for Mugler on Wednesday in Paris, a no-holds-barred spectacular featuring Lady Gaga modelling to ""Government Hooker,"" a song from her coming album. Above is an exclusive three-minute video of the breakthrough event.","An exclusive edit of Nicola Formichetti's debut women's-wear collection for Thierry Mugler at Paris Fashion Week, set to music by Lady Gaga.",General,General,General
510ac41f00315214fbb885c9,A new alliance wants zoning rules eased more than the city administration has proposed to encourage construction of towers around Grand Central Terminal.,Developers and Unions Seek Eased Limits on Midtown Projects,,N.Y. / Region,2013-02-01T00:00:00Z,"Real Estate (Commercial),","Zoning,Midtown Area (Manhattan, NY),Building Trades Employers' Assn,Real Estate Board of New York,Service Employees International Union,New York Building Congress,Manhattan Chamber of Commerce,Building and Construction Trade Council of Greater New York,New York Hotel and Motel Trades Council,",,"Formula One machines always have been open-air, open-cockpit racecars, but safety scientists at the FIA Institute, the research arm of the sport’s governing body, have been investigating whether canopies should be installed to make the cockpits safer.","The governing body of the race series recently tested the impact absorption of the canopies, which may find their way onto Formula One cars in coming years.",General,General,General
5110473400315214fbb891e0,"American luxury hotel brands are a common sight overseas, but the major hotel companies are also expanding their midlevel brands to foreign cities.",Familiar Hotel Signs Glow in Unfamiliar Places,On the Road,Business Day,2013-02-05T00:00:00Z,"Hotels and Travel Lodgings,Business Travel,","Crowne Plaza Hotels and Resorts,Marriott International Inc,Hilton Worldwide,Mexico City (Mexico),",,"Earlier this month, Iko Iko, a concept shop and gallery, pulled up stakes and moved to 931 North Fairfax Avenue in Hollywood. Its new space is lighter and airier than its former Echo Park location, and it gives Iko Iko's proprietors, Kristin Dickson and Shin Okuda, more room to showcase the charming utilitarian goods that have garnered the shop something of a cult following in Los Angeles. Okuda is from Tsuruga, a seaport city in western Japan, and he and Dickson share a deep affection for the beauty and simplicity of Japanese craft and design.",Ikebana baskets. Japanese ceramics. Traditional textiles and custom wood furniture. Just some of the items sold at a charming concept shop in Hollywood.,General,General,General
5111c73e00315214fbb896f4,An Iranian construction company contended that a check for nearly $70 million in Venezuelan currency found in the carry-on bag of a former economy minister had a mundane purpose.,Firm Denies Deception in Big Check Tied to Iran,,World,2013-02-06T00:00:00Z,,"Building (Construction),Mazaheri, Tahmaseb,Iran,Venezuela,Caracas (Venezuela),",,In the wake of Australia's move to add a price to carbon dioxide emissions -- which is particularly notable considering the country is one of the world's big exporters of coal (and related CO2 emissions) -- I sent a query to some Australian analysts of climate and energy policy to see if this holds lessons for the United States.,A closer look at Australia's move to put a price on CO2.,General,General,General
5122d40ccf28d009de0009d0,A wave of discounts for air travel has faded in the face of the rising cost of fuel and dwindling capacity.,Fuel Surcharges Push Up International Airfares,On the Road,Business Day,2013-02-19T00:00:00Z,"Airlines and Airplanes,","Business Travel,Oil (Petroleum) and Gasoline,",,"The PreFabricated Building Parts Production Enterprise in Addis Ababa is a state-owned company that makes concrete walls and other structures, mainly for the Ethiopian government's low-cost housing program.  Public-sector construction companies in the third world are not generally known for energy, flexibility, risk-taking or creative thinking.   PreFabricated, in other words, does not seem like the kind of business that would or could do astonishing things in a hurry.","Rapid Results, a strategy designed for corporations, is helping communities in Africa set goals and solve problems in 100 days or less.",General,General,General
51354813cf28d009de003685,The T.S.A. is promoting its program for disabled travelers after a clumsy security check involving a 3-year-old girl last month at the St. Louis airport.,Improving Security Checks to Help the Disabled,On the Road,Business Day,2013-03-05T00:00:00Z,"Airport Security,Disabilities,Transportation Security Administration,","Customer Relations,Business Travel,",,"[2:43 p.m. | Update | There's now a searchable cache for the newly disclosed East Anglia e-mails. Here's the ""Revkin"" search result.]",Are debates over the meaning of e-mail discussions of climate science missing the big picture?,General,General,General
5136d378cf28d009de003af2,"Some projects are now including health impact assessments, which include environmentally friendly materials and ways to promote physical activity.",Construction That Focuses on Health of Residents,Square Feet,Real Estate,2013-03-06T00:00:00Z,"Area Planning and Renewal,Real Estate and Housing (Residential),Denver (Colo),","Affordable Housing,Geothermal Power,Building (Construction),",,"For the final version of the article that appeared in the newspaper, click here.","One worker was critically injured, but no one was unaccounted for after a five-story apartment building under construction collapsed.",General,General,General
513e4e66cf28d04ae00023ba,The competitive environment for premium travelers is heating up.,Airport Lounge Perks Become a Priority,On the Road,Business Day,2013-03-12T00:00:00Z,"Airlines and Airplanes,Business Travel,","Frequent Flier Programs,Travel and Vacations,",,"Jan. 9, 11:45 a.m. | Updated If you've wondered where to look for signs that Earth is entering a geological epoch of our own making, the Anthropocene, what's a good place to start?",More work reinforces the idea that the human climate impact is staving off the next ice age.,General,General,General
514999dafdc5926e770011a7,"The plan calls for borrowing $67.6 billion to build high-speed rail lines, ports and other infrastructure over the next seven years, officials said.",Thai Cabinet Backs Plan for Ports and Rail Lines,,Business Day,2013-03-21T00:00:00Z,,"Thailand,Budgets and Budgeting,Infrastructure (Public Works),High-Speed Rail Projects,",,"The construction of El Barrio's Artspace (P.S. 109), a development of housing and work spaces for artists planned for East Harlem, will be aided by low-income housing tax credits from the New York City Department of Housing Preservation and Development, Artspace Projects has announced.","Tax credits from New York City are the final piece of financing needed for the construction of El Barrio's Artspace (PS109), a development of housing and work spaces for artists planned for East Harlem.",General,General,General
514d2586fdc5926e77001d7b,"The 50th anniversary of the Pan Am Building shows us that while erecting an office tower changes the visual impact of a city, its embedded ethos can also affect our quality of life.",Building High Anxiety,Big City,N.Y. / Region,2013-03-24T00:00:00Z,"MetLife Building (Manhattan, NY),Real Estate (Commercial),Area Planning and Renewal,New York City,Midtown Area (Manhattan, NY),","Grand Central Terminal (NYC),",,,Polls show that North Carolina voters are likely to pass an amendment to the state's constitution banning same-sex marriage and all domestic partnerships - but also that there is some confusion about what the amendment says.,General,General,General
5154e23efdc59278db000b15,"You can laugh at the sunbaked barbarians, but their renaissance is another chapter in the American experiment.",California Beaming ,Timothy Egan,Opinion,2013-03-28T20:30:44Z,"California,Budgets and Budgeting,High-Speed Rail Projects,Infrastructure (Public Works),",,,,"Talk of an economic slowdown in China has become so loud and persistent that it now has its own slang: ghost cities, ghost fleets, rocket eggs, naked officials. The downturn has even led to the invention of a new financial algorithm, something called the China Stress Index - and the index remains high.",General,General,General
515da32ccf28d0219d001485,Brian Brooks Moving Company’s “Big City” has its New York premiere at the Gotham Dance Festival.,"A Storm’s Aftermath, Lost in the City",Dance Review,Arts,2012-06-05T00:00:00Z,"Dancing,Brooks, Brian, Moving Company,Brooks, Brian,",,,,The real trouble with macroeconomists.,General,General,General
515da4fccf28d0219d001885,A new book describes the not-so-glamorous life of today’s flight attendant.,"Variety in a Flying Career, Spiced With Aggravation",On the Road,Business Day,2012-05-15T00:00:00Z,"Airlines and Airplanes,Flight Attendants,Books and Literature,",,,"Investment in new buildings and other fixed assets, once a mainstay of the nation’s economy, grew at the second-lowest pace since 2002.","Chinese Investment in new buildings and other fixed assets, once a mainstay of nation’s economy, grew at the second-lowest pace since 2002; industrial production rose only 8.9 percent in August from year earlier, weakest pace since May 2009; consumers, businesses and debt-burdened local governments are showing little interest in spending.",General,General,General
515da531cf28d0219d001907,"The New York City Ballet’s spring gala offered premieres by Peter Martins and Benjamin Millepied, and a return of Balanchine’s “Symphony in C.”","Pretty Works That Are New, but Not All That Modern",Dance Review,Arts,2012-05-12T00:00:00Z,"Millepied, Benjamin,Martins, Peter,New York City Ballet,Dancing,","Balanchine, George,New York City,Lincoln Center for the Performing Arts,",,"Even as travel is becoming more of a hassle, a book about crimes on Interstate highways might make you think twice about driving.","Joe Sharkey On the Road column weighs the pros and cons of driving versus flying for a 500-mile business trip, and ends up flying; points out Ginger Strand's new book about crimes on Interstate highways, Killer on the Road: Violence and the American Interstate, might make one think twice about driving.",General,General,General
515dacfccf28d0219d002a7c,Work on the conversion of an East Harlem school to housing and work space for artists is expected to start soon.,Housing for Artists Gains Tax Break,Posting,Real Estate,2012-02-19T00:00:00Z,"Real Estate and Housing (Residential),New York City,Artspace Projects Inc,Art,","East Harlem (NYC),Affordable Housing,",,,"A Utah building inspector embraces alternative construction methods, as long the the research data is there to support new ways of doing things.",General,General,General
515dae4ccf28d0219d002db6,"With help from a program that aids badly burned veterans, Joey Paulk received surgery that revived a measure of his self-confidence.","For Soldier Disfigured in War, a Way to Return to the World",The Hard Road Back,U.S.,2012-01-31T00:00:00Z,"Veterans,Series,Face,Burns,Plastic Surgery,","Iraq War (2003-11),Philanthropy,Afghanistan War (2001- ),Brooke Army Medical Center,United States Defense and Military Forces,University of California, Los Angeles,Afghanistan,Surgery and Surgeons,Bombs and Explosives,",,"Public speaking, a requirement in many jobs, also provides employment or extra income to thousands of people who travel for speaking engagements that can pay from $1,500 to more than $200,000.","Joe Sharkey On the Road column points out that public speaking, requirement in many jobs, also provides employment or extra income to thousands of people who travel for speaking engagements that can pay from $1,500 to more than $200,000.",General,General,General
5175ad55cf28d02a61002348,The National Ballet of Canada danced Alexei Ratmansky’s production of the Prokofiev ballet “Romeo and Juliet” last week at Sadler’s Wells Theater in London.,Carrying a Torch for Pure Academic Ballet,Dance Review,Arts,2013-04-23T00:00:00Z,"Dancing,National Ballet of Canada,","Ratmansky, Alexei,",,An exhibition celebrates 100 years of the iconic glass dome at Galeries Lafayette's flagship store in Paris.,,General,General,General
5176bfabcf28d02a610027d2,"At a symposium on the government’s 100-Year Starship Study, thoughts of traveling the cosmos were rooted in what’s possible.",Not Such a Stretch to Reach for the Stars,,Science,2011-10-18T00:00:00Z,"Defense Advanced Research Projects Agency,Space,","Rocket Science and Propulsion,National Aeronautics and Space Administration,Science and Technology,Stars and Galaxies,",,"With chances slim for new national policy and more government assistance, where will the impetus — and money — for energy innovation come from?","Clean energy companies and innovators are facing uncertain future now that $90 billion in stimulus money from Obama administration has run its course; influx allowed for wide expansion of solar and wind farms, doubling renewable energy generation alongside several other achievements, but budget constraints and political concerns make another such investment unlikely.",General,General,General
517ee4b0cf28d041ca000db8,"Airlines justify fee increases for schedule changes, a desired seat or a premium meal by saying they are needed to keep fares low.","As Fliers Chase Low Fares, Fees for the Extras Add Up",On the Road,Business Day,2013-04-30T00:00:00Z,"Airlines and Airplanes,","Prices (Fares, Fees and Rates),",,A court denied a request to halt work on the project from farmers in the Central Valley.,,General,General,General
5187d822cf28d05efe00103a,"An in-flight entertainment system from Row 44 can include high-speed Internet, games and live television, as well as a growing library of on-demand movies.","Speedy In-Flight Wi-Fi, Even During a Wild Ride",On the Road,Business Day,2011-10-18T00:00:00Z,"Airlines and Airplanes,Row 44,","Wireless Communications,Computers and the Internet,",,"No matter where travelers exchanged currency, they should inspect the money so they don’t unwittingly use it.","Joe Sharkey On the Road column says most international business travelers have some local money when they take trips, and they should inspect the money for counterfeit bills.",General,General,General
518a9cb0cf28d05efe00191f,Guest room Wi-Fi networks that most hotels thought they had brought up to standard just a few years ago are now often groaning under user demands.,"IPads Change Economics, and Speed, of Hotel Wi-Fi",On the Road,Business Day,2011-10-25T00:00:00Z,"Hotels and Motels,iPad,Tablet Computers,","Computers and the Internet,Business Travel,Wireless Communications,",,,"Trade between the sometimes hostile neighbors has skyrocketed, and $5.2 billion in new deals announced on Monday.",General,General,General
5191421240e9ec457e2a0f6c,The possibility that hotels might purchase a lot more bandwidth from their Internet providers and offer Wi-Fi to guests in a tiered-fee system provoked anger.,Readers’ Choice Words on Fees for Hotel Wi-Fi,On the Road,Business Day,2011-11-01T00:00:00Z,"Wireless Communications,Hotels and Motels,Business Travel,","Prices (Fares, Fees and Rates),",,"The work of the artist Agnes Denes, in all its variety, is being introduced to new audiences in shows on both coasts.","Work of artist Agnes Denes, survivor of Nazi occupation of Hungary who brings intense personal perspective to her art, is being introduced to new audiences with shows at gallery in Chelsea and Santa Monica Museum of Art.",General,General,General
51a4053240e9ec65d2039a6c,Hotel executives are frantically trying to stay on top of online reviews. Many companies expect managers to respond personally to negative reviews.,"With Everyone a Critic, Hoteliers Struggle to Cope",On the Road,Business Day,2013-05-28T00:00:00Z,"Hotels and Travel Lodgings,Customer Relations,","Business Travel,TripAdvisor.com,Accor SA,Small Luxury Hotels of the World,",,The cuts in domestic air service and other problems of air travel have made the rail option viable.,Joe Sharkey On the Road column contends cuts in domestic air service and other problems of air travel have made the rail option viable.,General,General,General
51ad2ef240e9ec65d203b14a,A book takes a different view of the jet-age flight attendant of the 1950s and 1960s.,Stewardesses Blazed a Trail in Feminism,On the Road,Business Day,2013-06-04T00:00:00Z,"Flight Attendants,Books and Literature,Airlines and Airplanes,Vantoch, Victoria,","Pan American World Airways,",,"Bullet trains traveling 186 miles an hour have begun regular service between Beijing and Guangzhou, shortening the 1,200-mile trip from 21 hours to eight.","China's bullet trains traveling 186 miles an hour begin regular service between Beijing and Guangzhou, shortening the 1,200-mile trip from 21 hours to eight; distance is equal to that from New York to Key West, Fla.",General,General,General
51b894707e0d9c0839d27787,An abundance of beetle-killed lumber in the West has led creative entrepreneurs to make money by repurposing the wood for technology accessories.,"Invasion of the Beetles, and a Rancher’s Revenge",Prototype,Business Day,2013-06-09T00:00:00Z,"Wood and Wood Products,Beetles,Entrepreneurship,","Lipson, Larry,Western States (US),Apple Inc,Bad Beetle,Trees and Shrubs,Sustainable Living,Montana,",,"Behavior detection officers observe and talk to passengers for signs of trouble. Such officers, some with explosive-sniffing dogs, already routinely survey checkpoint lines.","Joe Sharkey On the Road column observes that Transportation Security Administration is testing new behavior detection program where officers use on-the-spot observations and conversations with passengers to select some for quicker pass through airport checkpoints; notes that if program is successful, it will expand to more airports in 2013.",General,General,General
51b8953c7e0d9c0839d279da,"The Kennedy Center’s Ballet Across America series presented troupes from Pennsylvania, Washington and Sarasota, Fla.","The Nation&#8217;s Ballet Talent, From Pliant to Virtuosic",Dance Review,Arts,2013-06-10T00:00:00Z,"Dancing,Sarasota Ballet,Washington Ballet,Pennsylvania Ballet,","Kennedy, John F, Center for the Performing Arts,",,"The T.S.A. is taking some scanners out of service but, having spent $45 million on them, it has been vague on where they might be redeployed.","Joe Sharkey On the Road column observes that Transportation Security Administration is taking some much-reviled backscatter body-imaging scanners out of service but, having spent $45 million on them, it has been vague on where they might be redeployed.",General,General,General
51b8d2a57e0d9c0839d2809d,"A business plan that was released Tuesday projects that the cost to link the state’s major cities by high-speed rail has ballooned to nearly $100 billion over 20 years, accounting for inflation.",California: Price for High-Speed Rail Doubles,,U.S.,2011-11-02T00:00:00Z,"High-Speed Rail Projects,California,","Central Valley (Calif),Brown, Edmund G Jr,",,"If you waited until this week to plan your trip to the N.F.L. championship game in New Orleans, you will have a difficult time finding affordable airfare and hotels.","Joe Sharkey On the Road column says anyone who waited until now to plan trip to Super Bowl game in New Orleans will have trouble finding affordable airfare and hotels; says Super Bowl will probably generate about $185 million in local spending by visitors, compared to $150 million in 2012.",General,General,General
51c1e3b17e0d9c0839d29cad,"The collapsed section raised new doubts about the quality of work and training on the high-speed rail system, one of China’s most ambitious modernizations.","In China, Part of Railway Collapses Despite Test Runs",,World,2012-03-13T00:00:00Z,"China,High-Speed Rail Projects,Railroad Accidents and Safety,","Accidents and Safety,Railroads,",,"American luxury hotel brands are a common sight overseas, but the major hotel companies are also expanding their midlevel brands to foreign cities.","Joe Sharkey On the Road observes that American luxury hotel brands are common sight overseas, but major hotel companies are also expanding their midlevel brands to foreign cities.",General,General,General
51c202ea7e0d9c0839d2a077,"The construction of a Long Island Rail Road hub at Grand Central Terminal will cost $2 billion more than estimated and will not be completed until 2019, the Metropolitan Transportation Authority said.",L.I.R.R. Plan for East Side Needs More Time and Money,,N.Y. / Region,2012-05-22T00:00:00Z,"Long Island Rail Road Co,Grand Central Terminal (NYC),Metropolitan Transportation Authority,","Transit Systems,New York City,",,An Iranian construction company contended that a check for nearly $70 million in Venezuelan currency found in the carry-on bag of a former economy minister had a mundane purpose.,,General,General,General
51c2095d7e0d9c0839d2a150,The major domestic airlines are considering charging a $25 fee at the gate for carry-on bags that exceed size limits for an overhead bin.,Airlines Weighing Fee for Oversize Carry-Ons,On the Road,Business Day,2012-06-05T00:00:00Z,"Airlines and Airplanes,Luggage,","Prices (Fares, Fees and Rates),",,A wave of discounts for air travel has faded in the face of the rising cost of fuel and dwindling capacity.,Joe Sharkey On the Road column observes that wave of discounts for international air travel has faded in the face of the rising cost of fuel and dwindling capacity.,General,General,General
51c219237e0d9c0839d2a33e,"Despite deepening doubts over a proposed high-speed rail that would connect San Francisco and Los Angeles, legislators narrowly approved spending $8 billion to start construction.",Lawmakers Vote to Move Ahead With California Rail Link,,U.S.,2012-07-07T00:00:00Z,"California,High-Speed Rail Projects,","Law and Legislation,",,The T.S.A. is promoting its program for disabled travelers after a clumsy security check involving a 3-year-old girl last month at the St. Louis airport.,Joe Sharkey On the Road column observes that Transportation Security Administration is aggressively promoting its new program of using specially trained officers to head off unnecessary difficulties involving security screening of disabled travelers.,General,General,General
51c3837f7e0d9c0839d2a95c,"Judlau Contracting and Dragados, partners working on the Long Island Rail Road extension project, have traded charges over who is responsible for a $250 million loss.",Spanish Construction Rivals Battle on New York Turf,,Business Day,2012-08-15T00:00:00Z,"Long Island Rail Road Co,Dragados SA,Judlau Contracting,","Infrastructure (Public Works),Grand Central Terminal (NYC),Manhattan (NYC),Spain,Building (Construction),Suits and Litigation,Metropolitan Transportation Authority,Transit Systems,",,The competitive environment for premium travelers is heating up.,"Joe Sharkey On the Road column observes that competitive environment for premium airline travelers is heating up, with airport lounge perks becoming priority.",General,General,General
51c7bbae7e0d9c0839d2b338,"At the National Concrete Canoe Competition, engineering students raced aboard vessels they designed to float using a material that is normally the stuff of parking garages.",Out of Concrete and Drudgery Come Canoes That Float,,Science,2013-06-24T00:00:00Z,"Concrete,Engineering and Engineers,Canoes and Canoeing,University of Illinois,Colleges and Universities,","Illinois,American Society of Civil Engineers,",,"The plan calls for borrowing $67.6 billion to build high-speed rail lines, ports and other infrastructure over the next seven years, officials said.",,General,General,General
51d499d67e0d9c0839d2ddde,Find the Lincoln Highway in Times Square and you can drive it all the way to San Francisco. Go for a long ride as the highway celebrates its 100th birthday.,"Cross-Country, by a Road Less Traveled",Road Trip,Travel,2013-07-07T00:00:00Z,"Travel and Vacations,Roads and Traffic,","San Francisco (Calif),Manhattan (NYC),Nevada,Iowa,Nebraska,",,"The 50th anniversary of the Pan Am Building shows us that while erecting an office tower changes the visual impact of a city, its embedded ethos can also affect our quality of life.","Ginia Bellafante Big City column observes that 50th anniversary of the Pan Am Building, erected on top of Grand Central in 1960s and later named MetLife Building, coincides with Bloomberg administration's plans for rezoning what is known in urban planning circles as Midtown East; urges examination of Bloomberg's plans and their implications for quality of life in area.",General,General,General
51da33a07e0d9c0839d2e7f2,"Liu Zhijun, 60, a former minister of railways, confessed to taking millions in bribes in return for providing access to China’s huge spending on its train network expansion.",Ex-Rail Minister in China Gets a Suspended Death Sentence,,World,2013-07-08T00:00:00Z,"China,Liu Zhijun,High-Speed Rail Projects,","Sentences (Criminal),Bribery and Kickbacks,Corruption (Institutional),",,,"You can laugh at the sunbaked barbarians, but their renaissance is another chapter in the American experiment.",General,General,General
51df7c247e0d9c0839d2f58a,The robot is seen as a new tool that can come to the aid of humanity in natural and man-made disasters.,Modest Debut of Atlas May Foreshadow Age of ‘Robo Sapiens’,,Science,2013-07-12T00:00:00Z,"Robots and Robotics,Disasters and Emergencies,United States Defense and Military Forces,","Defense Department,Defense Advanced Research Projects Agency,Boston Dynamics,",,Brian Brooks Moving Company’s “Big City” has its New York premiere at the Gotham Dance Festival.,"Gia Kourlas reviews premiere of Big City and other dance pieces performed by the Brian Brooks Moving Company at the Joyce Theater, as part of the Gotham Dance Festival.",General,General,General
51e44a6a7e0d9c0839d2fe20,"Chinese investigators on Wednesday attributed a deadly train crash last summer to a string of blunders, including flaws in equipment used to signal and control the trains.",Design Flaws Cited in Deadly Train Crash in China,,World,2011-12-29T00:00:00Z,"Railroad Accidents and Safety,China,","High-Speed Rail Projects,",,A new book describes the not-so-glamorous life of today’s flight attendant.,"Joe Sharkey On the Road notes new book Cruising Attitude: Tales of Crashpads, Crew Drama, and Crazy Passengers at 35,000 Feet by flight attendant Heather Poole describes their not-so-glamorous life.",General,General,General
51e74a937e0d9c0839d3069d,The expansive main hall at the World Trade Center complex could become a destination in its own right.,A Transit Hub in the Making May Prove to Be the Grandest,Building Blocks,N.Y. / Region,2013-07-18T00:00:00Z,"World Trade Center (Manhattan, NY),Port Authority of New York and New Jersey,Calatrava, Santiago,Stations and Terminals (Passenger),Architecture,","New York City,",,"The New York City Ballet’s spring gala offered premieres by Peter Martins and Benjamin Millepied, and a return of Balanchine’s “Symphony in C.”","Alastair Macaulay reviews New York City Ballet's spring gala, featuring premieres of dance works by Benjamin Millepied and Peter Martins at the David H Koch Theater.",General,General,General
51e74a937e0d9c0839d3069d,The expansive main hall at the World Trade Center complex could become a destination in its own right.,A Transit Hub in the Making May Prove to Be the Grandest,Building Blocks,N.Y. / Region,2013-07-18T00:00:00Z,"World Trade Center (Manhattan, NY),Port Authority of New York and New Jersey,Calatrava, Santiago,Stations and Terminals (Passenger),Architecture,","New York City,",,Work on the conversion of an East Harlem school to housing and work space for artists is expected to start soon.,"Plan to turn an East Harlem elementary school into 90 affordable apartments for artists and their families and space for community arts groups has received a critical federal low-income housing tax credit worth about $24 million; project is a collaboration of Artspace, an organization that builds affordable living and work space for artists, and Operation Fightback, a community development organization in East Harlem.",General,General,General
51f6f59838f0d8431a75c402,The Transportation Security Administration has an ambitious goal of enrolling 25 percent of all passengers in its popular PreCheck initiative by the end of 2013.,Fast Airport Screening Is in Store for More,On the Road,Business Day,2013-07-30T00:00:00Z,"Airport Security,Business Travel,Transportation Security Administration,","Pistole, John S,",,"With help from a program that aids badly burned veterans, Joey Paulk received surgery that revived a measure of his self-confidence.","More than 900 American service members have been severely burned in Iraq or Afghanistan since 2001, typically from roadside bombs, many suffering the unique devastation of facial disfigurement; almost all receive extraordinary emergency care and rehabilitation at Brooke Army Medical Center in San Antonio, but many will never have their faces restored; some are finding hope in a program at UCLA Medical Center called Operation Mend, providing cosmetic surgery for severely burned veterans at no cost (Series: The Hard Road Back).",General,General,General
