ID,Snippet,Headline,Headline kicker,Lead Paragraph,Published Date,Major Keywords,Minor Keywords,,Domain,Field,Products
5817314c7c459f606398cb07,"The deal would give G.E. a big stake in the oil business, and give Baker Hughes shareholders stock in a larger, healthier company and a dividend.",General Electric Plans to Merge Its Oil and Gas Division With Baker Hughes,,"The deal would give G.E. a big stake in the oil business, and give Baker Hughes shareholders stock in a larger, healthier company and a dividend.",2016-10-31T11:55:47Z,"Baker Hughes Inc,General Electric Company,","Mergers, Acquisitions and Divestitures,Oil (Petroleum) and Gasoline,Halliburton Company,Antitrust Laws and Competition Issues,",,General,General,
581224647c459f606398c17c,"The Fusion may not be as miserly on gasoline as the Toyota Prius, but the Ford has the handsome chiseled lines that many hybrids lack.",Video Review: Ford Fusion Hybrid Combines Savings and Style,Driven,"The Fusion may not be as miserly on gasoline as the Toyota Prius, but the Ford has the handsome chiseled lines that many hybrids lack.",2016-10-27T15:59:22Z,"Electric and Hybrid Vehicles,Ford Motor Co,","Automobiles,",,General,General,
5817a4e77c459f606398cc6b,What could set this transaction apart is G.E.’s implicit recognition that the sum of its many parts may be more valuable than the whole.,General Electric’s Baker Hughes Deal Sets Precedent for Others,Breakingviews,What could set this transaction apart is G.E.’s implicit recognition that the sum of its many parts may be more valuable than the whole.,2016-10-31T20:09:00Z,,"Oil (Petroleum) and Gasoline,Mergers, Acquisitions and Divestitures,Baker Hughes Inc,General Electric Company,Immelt, Jeffrey R,",,General,General,
515db555cf28d0219d003ff7,"Chris Paine’s “Revenge of the Electric Car,” the follow-up to “Who Killed the Electric Car?,” is a slick, enjoyable valentine to a retooling industry.",An Electric Car Drives an Industry’s Change,Movie Review | 'Revenge of the Electric Car',"Chris Paine’s “Revenge of the Electric Car,” the follow-up to “Who Killed the Electric Car?,” is a slick, enjoyable valentine to a retooling industry.",2011-10-21T00:00:00Z,"Movies,","Documentary Films and Programs,Electric and Hybrid Vehicles,",,General,General,
581397337c459f606398c5b4,"G.E. has sold off $200 billion of financial assets since the financial crisis, but it is now prepared for an offensive.",Baker Hughes Could Be a Good Fit for General Electric,Breakingviews,"G.E. has sold off $200 billion of financial assets since the financial crisis, but it is now prepared for an offensive.",2016-10-28T18:21:29Z,,"Mergers, Acquisitions and Divestitures,General Electric Company,Baker Hughes Inc,Immelt, Jeffrey R,",,General,General,
581bda337c459f6a5fccc171,Top energy policy makers and corporate leaders say it will be challenging to meet even the deal’s modest goals to reduce emissions and greenhouse gases.,The Paris Agreement on Climate Change Is Official. Now What?,,Top energy policy makers and corporate leaders say it will be challenging to meet even the deal’s modest goals to reduce emissions and greenhouse gases.,2016-11-03T21:01:56Z,,"Global Warming,Greenhouse Gas Emissions,Automobiles,Fuel Emissions (Transportation),Electric and Hybrid Vehicles,Fuel Efficiency,Oil (Petroleum) and Gasoline,Air Pollution,",,General,General,
57f39e527c459f6063987c57,"The president’s Clean Power Plan is being fought by 28 states, and a bipartisan group of senators who want burning wood for electricity to be considered carbon neutral.","Next ‘Renewable Energy’: Burning Forests, if Senators Get Their Way",Economic Scene,"The president’s Clean Power Plan is being fought by 28 states, and a bipartisan group of senators who want burning wood for electricity to be considered carbon neutral.",2016-10-05T04:00:00Z,"Greenhouse Gas Emissions,Carbon Dioxide,Global Warming,","Forests and Forestry,Coal,Bioenergy and Biofuels,Electric Light and Power,",,General,General,
57eeae787c459f6063987004,Senator Edward J. Markey and Representative Jared Huffman write that the Clean Power Plan “is completely consistent” with the Clean Air Act.,Clean Power and the Courts,Letter,Senator Edward J. Markey and Representative Jared Huffman write that the Clean Power Plan “is completely consistent” with the Clean Air Act.,2016-10-01T04:00:00Z,"Clean Air Act,Global Warming,Greenhouse Gas Emissions,Electric Light and Power,Coal,","Supreme Court (US),Markey, Edward J,Obama, Barack,",,General,General,
5806f0067c459f606398a77c,"Claudio Descalzi, the chief executive, backed geologists’ hunches with computing muscle and money, and his “revolution” produced a massive discovery.",How Eni Bet Big and Won Big on Natural Gas off Egypt,,"Claudio Descalzi, the chief executive, backed geologists’ hunches with computing muscle and money, and his “revolution” produced a massive discovery.",2016-10-19T04:01:05Z,,"Egypt,Italy,Eni SpA,Exxon Mobil Corp,Royal Dutch Shell Plc,Descalzi, Claudio (1955- ),Oil (Petroleum) and Gasoline,Geology,Natural Gas,",,General,General,
57adcd3e7c459f21c9994c16,A jury in San Francisco found that Pacific Gas &amp; Electric violated pipeline safety laws when a blast leveled a neighborhood.,California Utility Found Guilty of Violations in 2010 Gas Explosion That Killed 8,,A jury in San Francisco found that Pacific Gas &amp; Electric violated pipeline safety laws when a blast leveled a neighborhood.,2016-08-10T04:00:00Z,"Explosions (Accidental),Pacific Gas and Electric Co,San Bruno (Calif),Pipelines,Natural Gas,California,","Infrastructure (Public Works),",,Utilities,Electric and Gas,Distributed Mangement System
53f666f738f0d821a37b2131,"The 2012 Ford Focus Electric, the first all-electric car from a Detroit automaker in the 21st century, has the road manners of a gasoline car and looks nearly identical to the regular Focus.",The Battery-Driven Car Just Got a Lot More Normal,Behind the Wheel | 2012 Ford Focus Electric,"The 2012 Ford Focus Electric, the first all-electric car from a Detroit automaker in the 21st century, has the road manners of a gasoline car and looks nearly identical to the regular Focus.",2012-05-06T00:00:00Z,"Electric and Hybrid Vehicles,Ford Motor Company,","Automobiles,",,Utilities,Electric and Gas,Distributed Mangement System
581b51527c459f606398d611,"The Obama administration is designating roughly 25,000 miles of U.S. highways as ""electric vehicle charging corridors"" where drivers will never be more than 50 miles from the closest charging station.","US Designates 25,000 Miles of Electric Car-Friendly Highways",,"The Obama administration is designating roughly 25,000 miles of U.S. highways as ""electric vehicle charging corridors"" where drivers will never be more than 50 miles from the closest charging station.",2016-11-03T15:01:28Z,,,,Utilities,Electric and Gas,Distributed Mangement System
582b4b2f7c459f6a5fcce1f8,BP PLC said on Tuesday it will use a new digital solution by General Electric Co designed to improve the efficiency and safety of its offshore oil platforms by predicting equipment breakdowns before they occur.,BP Inks Deal for General Electric Oilfield Data Service,,BP PLC said on Tuesday it will use a new digital solution by General Electric Co designed to improve the efficiency and safety of its offshore oil platforms by predicting equipment breakdowns before they occur.,2016-11-15T17:51:31Z,,,,Utilities,Electric and Gas,Distributed Mangement System
540a4c2938f0d84fb883374a,"Opponents in Northern California say the smart meters, seen as a crucial step toward creating a “green grid,” are a threat to privacy and health.",New Electricity Meters Stir Fears,,"Opponents in Northern California say the smart meters, seen as a crucial step toward creating a “green grid,” are a threat to privacy and health.",2011-01-31T00:00:00Z,,"Energy Efficiency,Environment,Pacific Gas and Electric Co,California,Computers and the Internet,",,General,General,
4fd2a15d8eb7c8105d885bb5,"Its chairman, Peter Darbee, will retire April 30, Pacific Gas and Electric said.",Chairman Will Depart At P.G.&E.,,"SAN FRANCISCO (AP) --Pacific Gas and Electric said Thursday that its top executive was stepping down after a ''challenging year'' that included a natural gas pipeline explosion in a San Francisco suburb that killed eight and left 38 homes destroyed. The executive, Peter A. Darbee, will retire on April 30, P.G.& E. said. Lee Cox, a former president and chief executive of AirTouch Cellular and a member of P.G.& E.'s board since 1996, will serve as interim chairman, chief executive and president, the positions held by Mr. Darbee, the company said.",2011-04-22T00:00:00Z,"DARBEE, PETER A,DARBEE, PETER,COX, LEE,SAN FRANCISCO (CALIF),PACIFIC GAS AND ELECTRIC CO,APPOINTMENTS AND EXECUTIVE CHANGES,",,,Utilities,Electric and Gas,Trimble GasOMS
55fae36c38f0d816d1846a9a,The authorities are investigating whether a Pacific Gas and Electric Company power line came into contact with a tree to cause a blaze that has killed two people.,Fires’ Toll Rises as Power Lines Come Under Scrutiny,,The authorities are investigating whether a Pacific Gas and Electric Company power line came into contact with a tree to cause a blaze that has killed two people.,2015-09-18T00:00:00Z,"Fires and Firefighters,Wildfires,Pacific Gas and Electric Co,California,","Accidents and Safety,",,Utilities,Electric and Gas,Distributed Mangement System
53f48c3c38f0d857ea2d11c9,Pacific Gas & Electric Co. has agreed to pay $70 million in restitution for the 2010 pipeline explosion that killed eight people in the San Francisco suburb of San Bruno.,California: Pacific Gas Establishes Fund as Restitution for Fatal Blast,,Pacific Gas & Electric Co. has agreed to pay $70 million in restitution for the 2010 pipeline explosion that killed eight people in the San Francisco suburb of San Bruno.,2012-03-13T00:00:00Z,"Pacific Gas and Electric Co,San Bruno (Calif),Pipelines,","Reparations and Restitution,Explosions,San Francisco (Calif),",,Utilities,Electric and Gas,Distributed Mangement System
5400b66e38f0d841b2f38530,"As many as five more people were missing in the wreckage of the natural gas explosion in San Bruno, Calif., the police said Saturday.",More Are Missing After Calif. Blast,,"As many as five more people were missing in the wreckage of the natural gas explosion in San Bruno, Calif., the police said Saturday.",2010-09-12T00:00:00Z,,"San Bruno (Calif),Explosions,Accidents and Safety,Pacific Gas and Electric Co,",,Utilities,Electric and Gas,Trimble GasOMS
5334cef338f0d8100c38f0a5,"A disclosure document said the company expected the federal government would bring criminal charges in connection with the Sept. 2010, explosion of its transmission pipeline in San Bruno.",Pacific Gas & Electric to Face Criminal Charge in Explosion,,"A disclosure document said the company expected the federal government would bring criminal charges in connection with the Sept. 2010, explosion of its transmission pipeline in San Bruno.",2014-03-28T00:00:00Z,"Pacific Gas and Electric Co,Pipelines,San Francisco Bay Area (Calif),Explosions,","San Bruno (Calif),California,Suits and Litigation (Civil),",,Utilities,Electric and Gas,Distributed Mangement System
52f2fad238f0d814439d928d,The incident at a Silicon Valley power substation underscored concerns about the vulnerability of the country’s electrical grid and prompted debate over whether it was an act of terrorism.,"Months Later, Sniper Attack at Power Hub Still a Mystery",,The incident at a Silicon Valley power substation underscored concerns about the vulnerability of the country’s electrical grid and prompted debate over whether it was an act of terrorism.,2014-02-06T00:00:00Z,"Terrorism,Electric Light and Power,Pacific Gas and Electric Co,San Jose (Calif),","Power Failures and Blackouts,",,Utilities,Electric and Gas,Distributed Mangement System
540e8adf38f0d863ce5a4f29,"Pacific Gas and Electric said that staff members recently found documents revealing a 1988 gas leak on the pipeline that exploded in San Bruno last year, killing eight people, and immediately notified federal authorities investigating the blast.",California: Previous Leak Revealed in Pipeline Where Blast Occurred,,"Pacific Gas and Electric said that staff members recently found documents revealing a 1988 gas leak on the pipeline that exploded in San Bruno last year, killing eight people, and immediately notified federal authorities investigating the blast.",2011-06-09T00:00:00Z,,"Pipelines,Pacific Gas and Electric Co,",,Utilities,Electric and Gas,Trimble GasOMS
5406683438f0d81983bdebe5,"Four years after eight people died and dozens were hurt in a natural gas explosion in San Bruno, Calif., the Pacific Gas & Electric Company was hit with a proposed $1.4 billion penalty for suspected safety violations.",$1.4 Billion in Penalties Is Sought in California Gas Blast,,"Four years after eight people died and dozens were hurt in a natural gas explosion in San Bruno, Calif., the Pacific Gas & Electric Company was hit with a proposed $1.4 billion penalty for suspected safety violations.",2014-09-03T00:00:00Z,"Explosions (Accidental),Pacific Gas and Electric Co,Natural Gas,San Bruno (Calif),","Accidents and Safety,Oil (Petroleum) and Gasoline,Fines (Penalties),",,Utilities,Electric and Gas,Trimble GasOMS
56bff7db38f0d86136858bec,"A spot submitted by supporters, and chosen in an effort overseen by Mr. Sanders’s wife, features portraits of a diverse array of people and a call to bring America together.",Bernie Sanders Relies on Supporters for Ad About Unity,Ad of the Week,"A spot submitted by supporters, and chosen in an effort overseen by Mr. Sanders’s wife, features portraits of a diverse array of people and a call to bring America together.",2016-02-14T00:00:00Z,"Presidential Election of 2016,Political Advertising,Sanders, Bernard,","Cruz, Ted,Trump, Donald J,Bush, Jeb,Right to Rise Policy Solutions Inc,",,General,General,
4fd3a1058eb7c8105d8e724a,"The behavior of Skyworks Solutions suggests that it may be attempting to back out of its $262.5 million deal to acquire Advanced Analogic Technologies, but its actions are cloaked in secrecy.",Is Skyworks Backing Out of Its Deal for Advanced Analogic?,DealBook,"Another week, another deal blowup.",2011-09-13T11:33:47Z,"Advanced Analogic Technologies Incorporated|AATI|NASDAQ,Skyworks Solutions Inc,Advanced Analogic Technologies Incorporated,Skyworks Solutions Inc|SWKS|NASDAQ,News,",,,General,General,
57bd5abf7c459f21c99965c6,"After violent riots, Milwaukeeans in the blighted inner city are searching for their own way out of despair, saying they cannot rely on government-led economic development projects to remedy chronic crime and unemployment.","In Wake of Riots, Milwaukee Looks Inward for Solutions",,"After violent riots, Milwaukeeans in the blighted inner city are searching for their own way out of despair, saying they cannot rely on government-led economic development projects to remedy chronic crime and unemployment.",2016-08-18T17:38:17Z,,,,General,General,
5338ffc238f0d848ef027f90,U.S. Secretary of State John Kerry and Russian Foreign Minister Sergey Lavrov are advancing far different proposals on how to calm tensions and de-escalate the crisis in Ukraine as Russia continues to mass troops along its border with the former...,"US, Russia Offer Differing Solutions on Ukraine",,U.S. Secretary of State John Kerry and Russian Foreign Minister Sergey Lavrov are advancing far different proposals on how to calm tensions and de-escalate the crisis in Ukraine as Russia continues to mass troops along its border with the former Soviet republic.,2014-03-31T01:37:23Z,,,,General,General,
4fd39e528eb7c8105d8e0ec5,Readers share their ideas on innovative ways to provide power to underserved regions.,Illuminating Thoughts on Power,Opinionator,"One of the pleasures of writing a column about creative problem solving is that readers typically write back with practical, rather than ideological, critiques as well as suggestions for other solutions to highlight. The comments from this week's Fixes column on Husk Power Systems were enlightening - and provided rich fodder for future columns.",2011-01-14T19:12:06Z,"Sustainable Living,Electric Light and Power,Sinha, Manoj,Husk Power Systems,News,Bihar (India),India,",,,General,General,
540bea3638f0d85e13e4cc7a,"With plant workers and soldiers struggling to re-establish cooling at the crippled Japanese nuclear power plant, the question is whether time is working for them or against them.",Executives May Have Lost Valuable Time at Damaged Nuclear Plant,,"With plant workers and soldiers struggling to re-establish cooling at the crippled Japanese nuclear power plant, the question is whether time is working for them or against them.",2011-03-20T00:00:00Z,,"Fukushima Daiichi Nuclear Power Plant (Japan),Japan Earthquake and Tsunami (2011),Nuclear Energy,Shutdowns (Institutional),Tokyo Electric Power Co,Japan,",,General,General,
4fd39e578eb7c8105d8e0ffa,A small company's innovative system is turning rice husks into electricity and illuminating India's poorest state.,A Light in India,Opinionator,"When we hear the word innovation, we often think of new technologies or silver bullet solutions - like hydrogen fuel cells or a cure for cancer. To be sure, breakthroughs are vital: antibiotics and vaccines, for example, transformed global health. But as we've argued in Fixes, some of the greatest advances come from taking old ideas or technologies and making them accessible to millions of people who are underserved.",2011-01-10T19:25:31Z,"Electric Light and Power,India,Alternative and Renewable Energy,Sinha, Manoj,Electric Light Bulbs,News,Energy and Power,Sustainable Living,Husk Power Systems,Bihar (India),",,,General,General,
5319f56c38f0d85d201f7167,"Stop dreaming of a butler. High-tech gizmos, those communications whizzes, virtually wait on you hand and foot.",Home Tweet Home,,"Stop dreaming of a butler. High-tech gizmos, those communications whizzes, virtually wait on you hand and foot.",2014-03-09T00:00:00Z,"Real Estate and Housing (Residential),Computers and the Internet,","Twitter,Mobile Applications,",,General,General,
53b3540b38f0d841fe32d861,"As Prepa struggles to pay its debts, the governor signed a law allowing public corporations to seek protection similar to what bankruptcy provides.",Puerto Rico’s Indebted Power Utility Adds to Island’s Problems,,"As Prepa struggles to pay its debts, the governor signed a law allowing public corporations to seek protection similar to what bankruptcy provides.",2014-07-02T00:00:00Z,,"Energy and Power,Electric Light and Power,Garcia Padilla, Alejandro,Puerto Rico,Petroleo Brasileiro SA Petrobras,",,General,General,
540a934538f0d84fb8833cb3,"Matt Porterfield, the director of the coming movie “Putty Hill,” finds that seat-of-the-pants solutions are imperative for indie filmmaking.",Indie Filmmaker’s Seat-of-the-Pants Solutions,,"Matt Porterfield, the director of the coming movie “Putty Hill,” finds that seat-of-the-pants solutions are imperative for indie filmmaking.",2011-02-13T00:00:00Z,,"Movies,",,General,General,
4fd39db38eb7c8105d8df779,Theodore Roosevelt IV burnishes his conservationist bona fides by working as an investment banker with deals in clean technology.,"Backing a Wind Farm, a Quiet Voice With a Big Stick",DealBook,"As president, Theodore Roosevelt was fond of the African proverb that advised leaders to ""speak softly and carry a big stick,"" particularly for foreign policy.",2010-12-06T19:05:45Z,"Wind Power,Alternative and Renewable Energy,Roosevelt, Theodore IV,Barclays PLC,News,Cape Wind Associates,Barclays PLC|BCS|NYSE,",,,General,General,
4fd39ed68eb7c8105d8e2042,"The ""collective impact"" strategy of creating alliances of civic and business leaders is being applied to social problems across the nation.",The Power of Partnerships,Opinionator,"Some problems are simply too complex to solve with any single approach. Consider the fact that in the United States, a million students drop out of high school each year. To begin to turn back that trend, we need to work on several fronts - assist vulnerable families when children are infants, improve classrooms from preschool through high school, provide after-school supports and college access assistance, tackle the issue of summer-learning loss and get much smarter about addressing students' social and emotional needs at every stage. In the words of Clay Shirky: ""Nothing will work, but everything might.""",2011-03-10T22:00:36Z,"Social Conditions and Trends,Education (K-12),Children and Youth,Cincinnati (Ohio),News,New York State,",,,General,General,
5417b6bd38f0d851fd3a85ad,A reader responds to an article about a battle in the battle in Colorado’s San Luis Valley over the development of solar energy.,Solar Power in Colorado,,A reader responds to an article about a battle in the battle in Colorado’s San Luis Valley over the development of solar energy.,2010-06-22T00:00:00Z,,"Solar Energy,Colorado,",,General,General,
540c3ad038f0d85e13e4d139,Researchers are working to develop a battery that will significantly increase the range and lower the cost of electric cars.,Building Better Batteries for Electric Cars,,Researchers are working to develop a battery that will significantly increase the range and lower the cost of electric cars.,2011-03-31T00:00:00Z,,"Batteries,Electric Vehicles,Automobiles,Energy and Power,",,General,General,
4fd399118eb7c8105d8d46a3,Does the need for new sources of energy outweigh the risks associated with nuclear power?,A Comeback for Nuclear Power?,Room for Debate,"The Obama administration has approved a $8 billion loan guarantee to support the construction of two nuclear reactors in Georgia. If the project goes forward, the plants would be the first built in the United States since the 1970s.",2010-02-16T18:39:04Z,"News,",,,General,General,
4fd2b81a8eb7c8105d8ad99f,"As president, Theodore Roosevelt was fond of the African proverb that advised leaders to ''speak softly and carry a big stick,'' particularly for foreign policy.     His great-grandson, Theodore Roosevelt IV, a longtime environmentalist and banker at...","Supporting Clean Technology, a Quiet Voice With a Big Stick",DEALBOOK ONLINE,"As president, Theodore Roosevelt was fond of the African proverb that advised leaders to ''speak softly and carry a big stick,'' particularly for foreign policy. His great-grandson, Theodore Roosevelt IV, a longtime environmentalist and banker at Barclays Capital, uses the same approach to deal-making.",2010-12-07T00:00:00Z,"ROOSEVELT, THEODORE IV,NANTUCKET SOUND,CAPE COD (MASS),BARCLAYS CAPITAL,ALTERNATIVE AND RENEWABLE ENERGY,WIND POWER,ELECTRIC LIGHT AND POWER,CAPE WIND PROJECT,",,,General,General,
5463a82238f0d82df864fcec,"Eurostar is betting on new destinations and bigger, wifi-enabled trains to lure more passengers from aeroplanes to the undersea tunnel linking Britain and mainland Europe.",Eurostar Bets on New Trains and Destinations to Win Passengers,,"Eurostar is betting on new destinations and bigger, wifi-enabled trains to lure more passengers from aeroplanes to the undersea tunnel linking Britain and mainland Europe. ",2014-11-12T13:31:39Z,,,,Utilities,Base Station Timing,Thunderbolt
5446216838f0d832c813fb8a,A Wi-Fi-based location service can provide results that are roughly equal to a global positioning system unit.,Two Ways to Find Yourself,Q&A,A Wi-Fi-based location service can provide results that are roughly equal to a global positioning system unit.,2010-05-13T00:00:00Z,,"Computers and the Internet,Wireless Communications,Navigation,",,Utilities,Wireless GPS,Thunderbolt
543815ed38f0d83c143b861d,"Nokia&#8217;s addition of navigation software on its smartphones is an effort to match Google, which offers free GPS on phones using its Android system.",Nokia Fires Back at Google With Free GPS on 10 Phones,,"Nokia&#8217;s addition of navigation software on its smartphones is an effort to match Google, which offers free GPS on phones using its Android system.",2010-01-22T00:00:00Z,,"Nokia Oyj,Computers and the Internet,Wireless Communications,Software,Cellular Telephones,Navigation,Global Positioning System,",,Utilities,Wireless GPS,Thunderbolt
57e2d9f57c459f227dbac910,An examination suggests that no upgrade is necessary unless you have owned your current iPhone for more than two years.,Apple’s iPhone 7 and Watch Updates: What You Really Need to Know,Tech Fix,An examination suggests that no upgrade is necessary unless you have owned your current iPhone for more than two years.,2016-09-08T04:00:00Z,"Smartphones,Watches and Clocks,iPhone,Wearable Computing,","Headphones and Headsets,Wireless Communications,Bluetooth Wireless Technology,Apple Inc,",,General,General,
4fd3a01b8eb7c8105d8e4fac,"The hedge fund manager Philip A. Falcone intends to operate a 4G network with Sprint Nextel, but his wireless venture still faces considerable challenges.",Falcone’s LightSquared Reaches Wireless Deal With Sprint,DealBook,8:46 p.m. | Updated,2011-06-17T20:03:40Z,"News,Falcone, Philip A,Hedge Funds,Wireless Communications,Federal Communications Commission,Harbinger Capital Partners,Sprint Nextel Corporation,LightSquared,Sprint Nextel Corporation|S|NYSE,",,,General,General,
4fd3a47a8eb7c8105d8ef0f7,"LightSquared, a broadband wireless company that aimed to connect millions of customers in a far-reaching satellite network, filed for bankruptcy protection on Monday.",Falcone's LightSquared Files for Bankruptcy,dealbook,"LightSquared, a broadband wireless company that aimed to connect millions of customers in a far-reaching satellite network, filed for bankruptcy protection on Monday.LightSquared, a broadband wireless company that aimed to connect millions of customers in a far-reaching satellite network, filed for bankruptcy protection on Monday.",2012-05-14T14:53:58Z,"Bankruptcies,Wireless Communications,",,,Utilities,Wireless GPS,Thunderbolt
541748e938f0d851fd3a7baa,Companies are responding to concerns about distracted driving by offering devices that are advanced enough to minimize the risks behind the wheel.,Less-Distracting Gifts for the Gadget-Happy Motorist,,Companies are responding to concerns about distracted driving by offering devices that are advanced enough to minimize the risks behind the wheel.,2010-06-10T00:00:00Z,,"Wireless Communications,Automobiles,",,General,General,
51d314db7e0d9c0839d2d955,"According to two audits, the fire and sanitation departments overpaid to install in their trucks custom-made GPS tracking units that did not even work properly.","GPS Units So Faulty, They Showed Fire Trucks in New York Harbor",,"According to two audits, the fire and sanitation departments overpaid to install in their trucks custom-made GPS tracking units that did not even work properly.",2011-11-10T00:00:00Z,"Fire Department (NYC),Sanitation Department (NYC),Global Positioning System,Bloomberg, Michael R,","Office of the Comptroller (NYC),Liu, John C,New York Harbor,New York City,",,Utilities,Wireless GPS,Thunderbolt
54193b0338f0d86afc9a12f8,"Offering greater freedom and long-term savings, no-contract plans are on the rise, with many options available and a growing clientele.","Cellphone Service by the Day, Month or Tankful",,"Offering greater freedom and long-term savings, no-contract plans are on the rise, with many options available and a growing clientele.",2010-08-05T00:00:00Z,,"Wireless Communications,Cellular Telephones,",,General,General,
544566b638f0d832c813eb8c,The newest telematics technologies can communicate with smartphones and coordinate entertainment and communications.,Two Paths to Similar Ends for In-Car Data Systems,,The newest telematics technologies can communicate with smartphones and coordinate entertainment and communications.,2010-04-25T00:00:00Z,,"Automobiles,Computers and the Internet,Wireless Communications,",,General,General,
50099ccf1c22dfde670b17b6,"Google announced significant improvements to maps in 11 countries, using an in-house project called ""Ground Truth."" Google says it believes that geographic data is much more accurate if it comes from one source. What it means is that Microsoft,...",Google Raises the Maps Bar,Bits,"Google announced significant improvements to maps in 11 countries, using an in-house project called ""Ground Truth."" Google says it believes that geographic data is much more accurate if it comes from one source. What it means is that Microsoft,...Google announced significant improvements to maps in 11 countries, using an in-house project called ""Ground Truth."" Google says it believes that geographic data is much more accurate if it comes from one source. What it means is that Microsoft, Amazon and Apple better be prepared to spend a fortune to even approach Google.",2012-07-20T13:59:51Z,"Google Inc,Computers and the Internet,Maps,Wireless Communications,",,,Utilities,Wireless GPS,Thunderbolt
541770d838f0d851fd3a7f6d,"In the Arkansas forest where flash flooding killed at least 19 people, some who live and visit there are happy to do without ties to the outside world.",Rethinking Cell Service in a Remote Flood Region,,"In the Arkansas forest where flash flooding killed at least 19 people, some who live and visit there are happy to do without ties to the outside world.",2010-06-14T00:00:00Z,,"Floods,Arkansas,Wireless Communications,Cellular Telephones,Nichols, John C,",,Utilities,Wireless GPS,Thunderbolt
5421c0c238f0d83c6e5b7314,"The Sixth Annual Pogie Awards go to the best ideas in products, clever twists that make life just a little better.",The Pogies: Best Tech Ideas of the Year,State of the Art,"The Sixth Annual Pogie Awards go to the best ideas in products, clever twists that make life just a little better.",2010-12-30T00:00:00Z,,"Wireless Communications,Mobile Applications,Software,",,General,General,
50c90c8900315214fbb7f2fd,"A number of apps can help a user extend the battery life of a mobile device, in part by providing information about its other apps and functions.","To Extend a Device’s Battery Life, Get to Know It Better",App Smart,"A number of apps can help a user extend the battery life of a mobile device, in part by providing information about its other apps and functions.",2012-12-13T00:00:00Z,"Mobile Applications,Batteries,","Wireless Communications,",,General,General,
4fd399118eb7c8105d8d460f,"As chips and sensors become smaller and more advanced, mobile phones are beginning to swallow and adopt any number of new functions.",Mobile Phones Eliminate Single-Serving Devices,Bits,"As chips and sensors become smaller and more advanced, mobile phones are beginning to swallow and adopt any number of new functions. As a result, they are quickly replacing other single-serving devices, including GPS units and cameras.",2010-01-06T16:52:21Z,"Cellular Telephones,Cameras,Camcorders,Music,News,Wireless Communications,Mobile (Ala),",,,Utilities,Wireless GPS,Thunderbolt
4fd3a0fc8eb7c8105d8e7059,Some Republican lawmakers take issue with donations to Democrats even as they accept contributions from LightSquared's potential rivals.,Falcone Under Fire From G.O.P. Over LightSquared,DealBook,"Another group of lawmakers have taken aim at the hedge fund manager Philip A. Falcone, asking for details of his communications with the White House about a telecommunications company he is backing.",2011-09-21T13:06:42Z,"Campaign Finance,Hall, Ralph,Falcone, Philip A,Global Positioning System,News,Wireless Communications,LightSquared,",,,General,General,
541aa98838f0d80959e6cf3d,Skyhook Wireless accuses Google of interference and patent infringement.,Competitor Sues Google Over Location Software for Smartphones,,Skyhook Wireless accuses Google of interference and patent infringement.,2010-09-16T00:00:00Z,,"Skyhook Wireless,Rubin, Andy,Jha, Sanjay K,Google Inc,Android (Operating System),Suits and Litigation,Software,Inventions and Patents,Smartphones,Global Positioning System,Motorola Inc,Samsung Electronics Co,",,General,General,
541a88d938f0d80959e6cc58,Projects in California and Maine ask people to photograph and locate dead animals to understand the impact of roads on the environment.,Mapping Traffic’s Toll on Wildlife,,Projects in California and Maine ask people to photograph and locate dead animals to understand the impact of roads on the environment.,2010-09-13T00:00:00Z,,"Animals,Roads and Traffic,Accidents and Safety,Maps,Computers and the Internet,California,Maine,Global Positioning System,",,Utilities,Wireless GPS,Thunderbolt
52cf0ca038f0d8359e12ce79,Shares in Dish were down more than 2.5 percent on Thursday after a lawyer for LightSquared said in bankruptcy court that its suitor had terminated its offer.,Dish Shares Drop After It Withdraws Bid for LightSquared,DealBook,Shares in Dish were down more than 2.5 percent on Thursday after a lawyer for LightSquared said in bankruptcy court that its suitor had terminated its offer.Shares in Dish were down more than 2.5 percent on Thursday after a lawyer for LightSquared said in bankruptcy court that its suitor had terminated its offer.,2014-01-09T15:54:01Z,"Ergen, Charles W,Falcone, Philip A,LightSquared,Dish Network,Wireless Communications,Mergers, Acquisitions and Divestitures,Bankruptcies,",,,General,General,
4fd39ec28eb7c8105d8e1bd5,Google's chief executive says search will become easier and more intuitive.,Eric Schmidt Predicts a Smartphone-Fueled Future,Bits,"BARCELONA, Spain -- In a keynote address here Tuesday evening at the Mobile World Congress, Eric E. Schmidt, chief executive of Google, outlined his vision for the future of search, which he said would become easier, more intuitive and more serendipitous.",2011-02-15T13:44:42Z,"Computers and the Internet,Android (Operating System),Schmidt, Eric E,Wireless Communications,News,Google Inc,Google Inc|GOOG|NASDAQ,",,,General,General,
54459e0038f0d832c813f052,"New cellphone apps take aim at drivers — young ones, especially — who text or make calls while behind the wheel.",Your Phone Is Locked. Just Drive.,State of the Art,"New cellphone apps take aim at drivers — young ones, especially — who text or make calls while behind the wheel.",2010-04-29T00:00:00Z,,"Text Messaging,Automobiles,Wireless Communications,Cellular Telephones,",,General,General,
4fd39fa78eb7c8105d8e3d9e,"Mayor Michael R. Bloomberg said the city would offer wireless Internet access in many of its parks, make vast reserves of data available to programmers, and host live chats with 311 agents.",Bloomberg Wants to Make New York ‘No. 1 Digital City’,City Room,"The New York City of the future will offer wireless Internet access in many of its parks, make vast reserves of data available to programmers and host live chats with 311 agents, according to a plan unveiled on Monday by Mayor Michael R. Bloomberg.",2011-05-16T15:51:18Z,"News,Bloomberg, Michael R,Computers and the Internet,Social Networking (Internet),Wireless Communications,New York City,",,,Utilities,Wireless GPS,Thunderbolt
4fd39eb38eb7c8105d8e1aec,"Near-field communication, or NFC, is the new buzz word being used at the World Mobile Congress in Barcelona, Spain.",Near-Field Communication: Beyond Mobile Transactions,Bits,"BARCELONA, Spain -- Among the many buzz words -- Androids, tablets, LTE -- being tossed around the showroom floor here at the Mobile World Congress, there's one that I still haven't quite been able to wrap my head around.",2011-02-15T10:56:24Z,"Barcelona (Spain),Wireless Communications,Mobile World Congress (Trade Show),News,",,,General,General,
5226926e38f0d8740ac9d84d,"Nokia, despite the sale of its handset unit to Microsoft, will still be in business with two major technology components: networking and mapping.","Shedding Handsets, Nokia Looks to the Future",,"Nokia, despite the sale of its handset unit to Microsoft, will still be in business with two major technology components: networking and mapping.",2013-09-04T00:00:00Z,"Nokia Oyj,","Microsoft Corporation,Wireless Communications,Cellular Telephones,Mergers, Acquisitions and Divestitures,",,General,General,
51c1f9d17e0d9c0839d29f59,A leading House Democrat is demanding information from the biggest cellphone companies in the United States about their role in helping police departments track suspects in criminal investigations.,Wireless Carriers Who Aid Police Are Asked for Data,,A leading House Democrat is demanding information from the biggest cellphone companies in the United States about their role in helping police departments track suspects in criminal investigations.,2012-05-03T00:00:00Z,"Surveillance of Citizens by Government,Markey, Edward J,Cellular Telephones,","Wireless Communications,Verizon Communications Inc,AT&T Inc,CTIA - The Wireless Association,American Civil Liberties Union,",,General,General,
4fd39e328eb7c8105d8e08b2,"A new project by BodyMedia and Sprint will allow consumers to send a constant, wireless stream of information about their physical activity to their phones.",Sprint Will Know Whether You're Really Exercising,Gadgetwise,"This year, your phone will know whether you're jogging as much as you said you would.",2011-01-03T07:00:47Z,"Mobile Applications,Medicine and Health,Exercise,Wireless Communications,News,Sprint Nextel Corporation,BodyMedia,",,,General,General,
506f19b2db1c5a2ac53b803f,"An air-conditioned data center at Sandia National Laboratories in Livermore, Calif., has 500 inexpensive desktop computers lined up on racks that are running a special software simulation intended to mimic the behavior of an entire city's worth of...","300,000 Android 'Phones' Roam a Virtual Town",Bits,"An air-conditioned data center at Sandia National Laboratories in Livermore, Calif., has 500 inexpensive desktop computers lined up on racks that are running a special software simulation intended to mimic the behavior of an entire city's worth of...An air-conditioned data center at Sandia National Laboratories in Livermore, Calif., has 500 inexpensive desktop computers lined up on racks that are running a special software simulation intended to mimic the behavior of an entire city's worth of Android smartphones.",2012-10-03T07:00:01Z,"Sandia National Laboratories,Android (Operating System),Computer Security,Wireless Communications,",,,General,General,
4fd3a21c8eb7c8105d8e98bf,New technologies are often greeted with fear and that is certainly true of a disruptive technology like cellphones. Yet rules that are decades old persist without evidence to support the idea that someone reading an e-book or playing a video game...,"Disruptions: Fliers Must Turn Off Devices, but It's Not Clear Why",Bits,"Millions of Americans who got on a plane over the Thanksgiving holiday heard the admonition: ""Please power down your electronic devices for takeoff.""",2011-11-27T18:28:08Z,"Wireless Communications,Aviation Accidents and Safety,Airlines and Airplanes,Federal Aviation Administration,News,",,,General,General,
4feb42a0439ee47a72ecccbc,"Philip A. Falcone, the hedge fund manager, will fight any charges filed against him, his lawyer said. The S.E.C. has been looking at a $113 million loan Mr. Falcone made from his fund.",S.E.C. Said to Be Poised to Sue Fund Manager,DealBook,"Philip A. Falcone, the hedge fund manager, will fight any charges filed against him, his lawyer said. The S.E.C. has been looking at a $113 million loan Mr. Falcone made from his fund.Philip A. Falcone, the hedge fund manager, will fight any charges filed against him, his lawyer said. The S.E.C. has been looking at a $113 million loan Mr. Falcone made from his fund.",2012-06-26T21:47:38Z,"Falcone, Philip A,Goldman Sachs Group Inc,Harbinger Capital Partners,LightSquared,Securities and Exchange Commission,Hedge Funds,Securities and Commodities Violations,Wireless Communications,",,,General,General,
54246e7238f0d8525e453539,"Google expects the Nexus One, its rival to the iPhone, to help it retain its leadership as computing shifts.",Google Moves to Keep Its Lead as Web Goes Mobile,,"Google expects the Nexus One, its rival to the iPhone, to help it retain its leadership as computing shifts.",2010-01-05T00:00:00Z,,"Google Phone,Google Inc,Wireless Communications,Computers and the Internet,Smartphones,",,General,General,
4fd39e788eb7c8105d8e1354,"Analysts say big technology companies, flush with cash and eager to acquire high-margin companies, may find opportunities among small and midsize chip makers.",Qualcomm Deal May Spur Takeovers of Chip Makers,DealBook,Qualcomm's $3.1 billion deal to acquire the chip maker Atheros Communications is a long-term play on the increasingly wired nature of consumers' lives.,2011-01-05T20:51:34Z,"Qualcomm Inc|QCOM|NASDAQ,Smartphones,Intel Corp|INTC|NASDAQ,Mergers, Acquisitions and Divestitures,Jacobs, Paul E,Wireless Communications,News,Atheros Communications Inc,Intel Corp,Qualcomm Inc,Atheros Communications Inc|ATHR|NASDAQ,",,,General,General,
581c4e477c459f6a5fccc304,Electricity was restored and a major hotel at the heart of the Las Vegas Strip reopened Friday after a complete blackout and overnight evacuation blamed on damage to the main basement electric line.,"Vegas Strip Resort Reopens After Power Outage, Evacuation",,Electricity was restored and a major hotel at the heart of the Las Vegas Strip reopened Friday after a complete blackout and overnight evacuation blamed on damage to the main basement electric line.,2016-11-04T09:00:49Z,,,,Utilities,Damage and Outage ,Network Information System
580447fd7c459f606398a0ce,"Star slugger Anthony Rizzo hit a soft liner for the Chicago Cubs' final out, which only seemed fitting.","Power Outage From Rizzo, Russell Costs Cubs Against Kershaw",,"Star slugger Anthony Rizzo hit a soft liner for the Chicago Cubs' final out, which only seemed fitting.",2016-10-17T03:38:40Z,,,,General,General,
57e4a9c67c459f227dbacf24,Frustration mounted across Puerto Rico on Friday amid record-high heat as the U.S. territory struggled to restore electricity more than two days after a power plant fire caused an island-wide blackout when it shut down an aging utility grid.,"Cheers, Groans as Puerto Rico Struggles With Power Outage",,Frustration mounted across Puerto Rico on Friday amid record-high heat as the U.S. territory struggled to restore electricity more than two days after a power plant fire caused an island-wide blackout when it shut down an aging utility grid.,2016-09-23T04:02:20Z,,,,Utilities,Damage and Outage ,Network Information System
5348aa2f38f0d85faac97d3e,A computer outage at the International Space Station may require a spacewalk by astronauts and threatens to delay next week's launch of a commercial supply ship for NASA.,Space Station Computer Outage May Force Spacewalk,,A computer outage at the International Space Station may require a spacewalk by astronauts and threatens to delay next week's launch of a commercial supply ship for NASA.,2014-04-11T22:48:32Z,,,,General,General,
57ae850a7c459f21c999513f,"As flight cancelations and delays move into their fourth day, Delta Air Lines isn't providing details on a ""small fire"" Monday at its data center and whether that fire &#8212; or attempts to extinguish it &#8212; compounded the airline's troubles.",Delta Computer Outage Included 'Small Fire' at Data Center,,"As flight cancelations and delays move into their fourth day, Delta Air Lines isn't providing details on a ""small fire"" Monday at its data center and whether that fire &#8212; or attempts to extinguish it &#8212; compounded the airline's troubles.",2016-08-11T15:31:02Z,,,,General,General,
5515202338f0d82942dd628d,"The Amsterdam region suffered a power blackout of more than five hours on Friday that hit a million households, forced flights to divert from Schiphol airport and disrupted national public transport networks.",Power Returns to Amsterdam After Outage Hits a Million Homes,,"The Amsterdam region suffered a power blackout of more than five hours on Friday that hit a million households, forced flights to divert from Schiphol airport and disrupted national public transport networks.",2015-03-27T05:14:22Z,,,,General,General,
54a466fe38f0d83a07dc4037,"News reports say a widespread electricity outage has hit Luhansk, the second-largest city in Ukraine's separatist east, and the leader of the rebels who control it is claiming that's due to Ukrainian sabotage.",Wide Power Outage in Rebel-Held Ukrainian City,,"News reports say a widespread electricity outage has hit Luhansk, the second-largest city in Ukraine's separatist east, and the leader of the rebels who control it is claiming that's due to Ukrainian sabotage.",2014-12-31T16:10:18Z,,,,Utilities,Damage and Outage ,Network Information System
5220d21c38f0d8740ac9c169,"Regulators are questioning how robust Nasdaq OMX Group's systems are after last week's massive trading outage, while shrugging off a spat with NYSE Euronext as a distraction, a source familiar with the matter said on Tuesday.",SEC Reviews Nasdaq as Rivals Blame Each Other for Outage,,"Regulators are questioning how robust Nasdaq OMX Group's systems are after last week's massive trading outage, while shrugging off a spat with NYSE Euronext as a distraction, a source familiar with the matter said on Tuesday.",2013-08-27T00:06:51Z,,,,General,General,
54ee4e9c38f0d85e5cb22113,"People across northern Arizona couldn't use the Internet, their cellphones or landlines for several hours Wednesday after someone vandalized a fiber-optic line that brings communications to a large part of the state, officials said.","Outage Cuts Internet, Phone Service Across Northern Arizona",,"People across northern Arizona couldn't use the Internet, their cellphones or landlines for several hours Wednesday after someone vandalized a fiber-optic line that brings communications to a large part of the state, officials said.",2015-02-25T17:22:55Z,,,,General,General,
51f835d738f0d8431a75c749,"A tropical storm that rolled through Hawaii Monday and early Tuesday dissipated, leaving little damage and no reports of deaths or major injuries.","Flossie Dissipates, Leaves Little Damage in Hawaii",,"A tropical storm that rolled through Hawaii Monday and early Tuesday dissipated, leaving little damage and no reports of deaths or major injuries.",2013-07-30T17:20:55Z,,,,Utilities,Damage and Outage ,GSI Forester
4fd3a09b8eb7c8105d8e62b1,"To be covered for water in your basement, you generally must carry flood insurance.","Hurricane Damage Questions, Part 2: Flooding and Food",Bucks,Bucks readers have raised questions about hurricane claims for water damage and for food that spoiled due to a loss of electricity.,2011-08-31T12:14:05Z,"Hurricane Irene (2011),Floods,Basements and Cellars,Insurance,News,",,,Utilities,Damage and Outage ,GSI Forester
54f41c1d38f0d84018918e5d,"To be covered for water in your basement, you generally must carry flood insurance.","Hurricane Damage Questions, Part 2: Flooding and Food",,"To be covered for water in your basement, you generally must carry flood insurance.To be covered for water in your basement, you generally must carry flood insurance.",2011-08-31T12:14:05Z,,,,General,General,
57ecd3fe7c459f227dbae172,An unprecedented power outage across South Australia state has stopped production at major miners BHP Billiton and OZ Minerals and left one steelmaker struggling to prevent molten steel from hardening and damaging its factory.,Statewide Blackout Plunges Australia Into Renewable Energy Debate,,An unprecedented power outage across South Australia state has stopped production at major miners BHP Billiton and OZ Minerals and left one steelmaker struggling to prevent molten steel from hardening and damaging its factory.,2016-09-29T08:40:54Z,,,,General,General,
5569a7f038f0d87c79ae6141,"A magnitude 8.5 earthquake struck off the east coast of Japan on Saturday, shaking buildings in Tokyo, but there was no danger of a tsunami and no reports of damage since the quake was extremely deep.","Magnitude 8.5 Quake Strikes Off Eastern Japan, No Tsunami Danger or Damage Reports",,"A magnitude 8.5 earthquake struck off the east coast of Japan on Saturday, shaking buildings in Tokyo, but there was no danger of a tsunami and no reports of damage since the quake was extremely deep.",2015-05-30T08:05:08Z,,,,Utilities,Damage and Outage ,GSI Forester
57f7d8ee7c459f6063988840,"Hurricane Matthew is threatening the Atlantic coast from Florida to South Carolina and could deliver tens of billions of dollars in damage, according to experts, after the storm killed 500 people and left thousands homeless in Haiti.","Factbox: Economic Impact, Business Closures From Hurricane Matthew",,"Hurricane Matthew is threatening the Atlantic coast from Florida to South Carolina and could deliver tens of billions of dollars in damage, according to experts, after the storm killed 500 people and left thousands homeless in Haiti.",2016-10-07T17:16:17Z,,,,Utilities,Damage and Outage ,GSI Forester
5473b1e038f0d871c82f9fbe,A power outage at a Baltimore airport terminal disrupted operations and caused flights to be canceled or delayed.,Baltimore Airport Loses Power for 90 Minutes,,A power outage at a Baltimore airport terminal disrupted operations and caused flights to be canceled or delayed.,2014-11-24T17:29:58Z,,,,General,General,
57fde6a57c459f6063989391,"For a storm that inflicted less damage than many had feared, Hurricane Matthew nevertheless impaired or destroyed more than 1 million structures, forced businesses from Florida to North Carolina to close and put thousands temporarily out of work.","Closed US Restaurants, Damaged Homes: Matthew May Cost $10B",,"For a storm that inflicted less damage than many had feared, Hurricane Matthew nevertheless impaired or destroyed more than 1 million structures, forced businesses from Florida to North Carolina to close and put thousands temporarily out of work.",2016-10-12T07:28:24Z,,,,Utilities,Damage and Outage ,GSI Forester
57f2ac667c459f6063987a4a,"High winds led Albuquerque balloon fiesta officials to ground pilots Monday, a day after two balloons hit power lines, sparking an explosion and knocking out electricity to hundreds of residents.",Balloon Fiesta Grounds Pilots a Day After Power Line Crashes,,"High winds led Albuquerque balloon fiesta officials to ground pilots Monday, a day after two balloons hit power lines, sparking an explosion and knocking out electricity to hundreds of residents.",2016-10-03T19:03:22Z,,,,Utilities,Damage and Outage ,Network Information System
57f6bd8e7c459f6063988534,"The Southeast United States is expected to be hit with fuel shortages in the aftermath of Hurricane Matthew, as the storm barrels toward one of the largest energy-consuming regions in the country.","Fuel Crunch Looms, Terminals in Path as Hurricane Matthew Nears U.S.",,"The Southeast United States is expected to be hit with fuel shortages in the aftermath of Hurricane Matthew, as the storm barrels toward one of the largest energy-consuming regions in the country. ",2016-10-06T21:08:34Z,,,,Utilities,Damage and Outage ,GSI Forester
57eb78ae7c459f227dbadd65,"Power was restored to the state of South Australia on Wednesday after storms a day earlier caused an unprecedented statewide blackout which disrupted operations at mining majors like BHP Billiton, closed ports and halted public transport.",Statewide Blackout in Australia Raises Questions Over Renewable Energy,,"Power was restored to the state of South Australia on Wednesday after storms a day earlier caused an unprecedented statewide blackout which disrupted operations at mining majors like BHP Billiton, closed ports and halted public transport.",2016-09-28T08:00:01Z,,,,Utilities,Damage and Outage ,GSI Forester
582950377c459f6a5fccdcc7,"More than 50 violations at a steel mill run by Taiwan's Formosa Plastics Group, including the unauthorised use of a dirtier production process, led to Vietnam's worst environmental disaster, according to an internal government report.","Exclusive-Broken Rules at $11 Billion Formosa Mill Triggered Vietnam Spill, Report Says",,"More than 50 violations at a steel mill run by Taiwan's Formosa Plastics Group, including the unauthorised use of a dirtier production process, led to Vietnam's worst environmental disaster, according to an internal government report.",2016-11-14T05:48:27Z,,,,Utilities,Damage and Outage ,GSI Forester
5828f2bb7c459f6a5fccdc2c,"More than 50 violations at a steel mill run by Taiwan's Formosa Plastics Group, including the unauthorised use of a dirtier production process, led to Vietnam's worst environmental disaster, according to an internal government report.","Exclusive-Broken Rules at $11 Billion Formosa Mill Triggered Vietnam Spill, Report Says",,"More than 50 violations at a steel mill run by Taiwan's Formosa Plastics Group, including the unauthorised use of a dirtier production process, led to Vietnam's worst environmental disaster, according to an internal government report.",2016-11-13T23:09:35Z,,,,Utilities,Damage and Outage ,GSI Forester
57dea7e87c459f227dbabaae,"As thousands of commercial drones take to the skies under new Federal Aviation Administration rules, some small operators are pursuing a coveted exemption that would allow them to fly their drones where they can't be seen by the pilot.",Drone Operators Seek Permission to Fly Out of Direct Sight,,"As thousands of commercial drones take to the skies under new Federal Aviation Administration rules, some small operators are pursuing a coveted exemption that would allow them to fly their drones where they can't be seen by the pilot.",2016-09-18T14:39:35Z,,,,General,General,
57fbc9547c459f6063988e98,Maureen Miller was among the 2 million people ordered to evacuate coastal areas in the Southeast ahead of Hurricane Matthew. Her family and their dog spent two nights in a hotel and struggled through police roadblocks to return.,"After Matthew, Some Second-Guess Decision to Evacuate",,Maureen Miller was among the 2 million people ordered to evacuate coastal areas in the Southeast ahead of Hurricane Matthew. Her family and their dog spent two nights in a hotel and struggled through police roadblocks to return.,2016-10-10T16:57:36Z,,,,Utilities,Damage and Outage ,GSI Forester
5800fe907c459f6063989bfd,The Latest on a powerful storm in the Pacific Northwest (all times local):,The Latest: Motorists Told to Stay Off Flooded Roads,,The Latest on a powerful storm in the Pacific Northwest (all times local):,2016-10-14T15:46:15Z,,,,General,General,
57e3583e7c459f227dbacb60,Most Puerto Ricans faced another night of darkness Thursday as crews slowly restored electricity a day after a fire at a power plant caused the aging utility grid to fail and blacked out the entire island of 3.5 million people.,Most Puerto Ricans Face a Second Night Without Electricity,,Most Puerto Ricans faced another night of darkness Thursday as crews slowly restored electricity a day after a fire at a power plant caused the aging utility grid to fail and blacked out the entire island of 3.5 million people.,2016-09-22T04:00:48Z,,,,Utilities,Damage and Outage ,Network Information System
52b8d12538f0d86bcb2a70c1,"As President Obama visited Alabama, power remained out for hundreds of thousands and the death toll reached 333.",Storms’ Toll Rises as Scale of Damage Becomes Clear,,"As President Obama visited Alabama, power remained out for hundreds of thousands and the death toll reached 333.",2011-04-30T00:00:00Z,,"Tornadoes,Southern States (US),Deaths (Fatalities),",,Utilities,Damage and Outage ,Network Information System
56d82aec38f0d8655e09bd52,"Syria's electricity supply was gradually returning after it was cut across the country on Thursday and Internet connections were briefly disrupted, state media said.",Electricity Supply Gradually Returns in Syria-State Media,,"Syria's electricity supply was gradually returning after it was cut across the country on Thursday and Internet connections were briefly disrupted, state media said.",2016-03-03T07:12:20Z,,,,Utilities,Damage and Outage ,Network Information System
57fccf867c459f60639890eb,The Latest on the recovery from Hurricane Matthew (all times local):,The Latest: Florida Raises Hurricane Matthew Death Toll to 9,,The Latest on the recovery from Hurricane Matthew (all times local):,2016-10-11T11:37:54Z,,,,General,General,
5473adb538f0d871c82f9fac,The Federal Aviation Administration outlined steps Monday to improve its security and air traffic control backup systems following the sabotage of a suburban Chicago air traffic control center that disrupted travel nationwide &#8212; but said...,FAA Chief: Disaster Response Depends on Funding,,The Federal Aviation Administration outlined steps Monday to improve its security and air traffic control backup systems following the sabotage of a suburban Chicago air traffic control center that disrupted travel nationwide &#8212; but said widespread upgrades will require money from Congress.,2014-11-24T17:10:20Z,,,,General,General,
